2022-06-07T07:21:44.860910217Z stderr F {"level":"error","ts":1654586504.8605716,"caller":"app/repeat.go:31","msg":"hN qOAOYk TMaBnTOVJIeP oILdXuqAkAdr OoKeNlAyTUC ndyGMNUgbHOMAY uuivrcDQIsBMPV aYPHEtOhCOhR CAVkBmvHW FrUxAJr mEujxrMiONNG","stacktrace":"main.printLog\n\t/go/src/app/repeat.go:31\nmain.Repeat\n\t/go/src/app/repeat.go:55\nmain.main\n\t/go/src/app/repeat.go:74\nruntime.main\n\t/usr/local/go/src/runtime/proc.go:250"}
2022-06-07T07:21:44.861017892Z stderr F {"level":"error","ts":1654586504.8606446,"caller":"app/repeat.go:31","msg":"rgsLZ sibONpY ScKnxTnClGqMv daZqMNjq fKrVYb","stacktrace":"main.printLog\n\t/go/src/app/repeat.go:31\nmain.Repeat\n\t/go/src/app/repeat.go:55\nmain.main\n\t/go/src/app/repeat.go:74\nruntime.main\n\t/usr/local/go/src/runtime/proc.go:250"}
2022-06-07T07:21:44.861029726Z stderr F {"level":"info","ts":1654586504.860676,"caller":"app/repeat.go:35","msg":"aAerpyany LjkQjSgbR NCGUoQhH JMwrGKaxVuNOw elvHBB spkgUuGneX XLikbVDBh VKCtpU dVGRukJ UjBaYb"}
2022-06-07T07:21:44.861036879Z stderr F {"level":"info","ts":1654586504.8606987,"caller":"app/repeat.go:35","msg":"q DPurhulQLkA dqTqpILXKLD zWIar BEYmcDcIr"}
2022-06-07T07:21:44.861042785Z stderr F {"level":"info","ts":1654586504.8607275,"caller":"app/repeat.go:35","msg":"KiXxkRKe EytUbCwN dhPkLv UWFDNSDSXLAvgG"}
2022-06-07T07:21:44.8611154Z stderr F {"level":"info","ts":1654586504.8607552,"caller":"app/repeat.go:35","msg":"licd ZtIhKfslqGAWl mfKVaLObOn IJeqN KvepjpaP ZJgWqQSAbijY OhHXySKkT FdcxrALDtkM QFgozhQyM"}
2022-06-07T07:21:44.861131831Z stderr F {"level":"info","ts":1654586504.8607895,"caller":"app/repeat.go:35","msg":"zV PajDbiPnsvq IgbdeeYCF hCDHXSlffc zCqwU"}
2022-06-07T07:21:44.861138424Z stderr F {"level":"info","ts":1654586504.8608186,"caller":"app/repeat.go:35","msg":"EOs CpjYBucnQa wJZShHVKlEqMtT lujPyXvYvOXkYx"}
2022-06-07T07:21:44.861145427Z stderr F {"level":"warn","ts":1654586504.8608315,"caller":"app/repeat.go:33","msg":"NMEI"}
2022-06-07T07:21:44.861203504Z stderr F {"level":"info","ts":1654586504.8608518,"caller":"app/repeat.go:35","msg":"EjjAAuhrJ qGgnCVvdwLrzDX mFkotcaMuvQYkl izLaaFWNuTy VHjbUo ncBkKDXGwrPwgN OTTQpJnMlVc XFRFEWMaWyCJq AEllAZ DHGPlx tNxrHzMmIcf"}
2022-06-07T07:21:44.861222236Z stderr F {"level":"error","ts":1654586504.860868,"caller":"app/repeat.go:31","msg":"m ykOcVMbpaSBpLU XSocIK kVdaNZKu DwwTy","stacktrace":"main.printLog\n\t/go/src/app/repeat.go:31\nmain.Repeat\n\t/go/src/app/repeat.go:55\nmain.main\n\t/go/src/app/repeat.go:74\nruntime.main\n\t/usr/local/go/src/runtime/proc.go:250"}
2022-06-07T07:21:44.861232377Z stderr F {"level":"warn","ts":1654586504.8608952,"caller":"app/repeat.go:33","msg":"YsZkEc ooVPyOmxCVwHaa utSrYJojmSXerl ksttPsYx gTGQtVsb SLQQokHU KsEcWK"}
2022-06-07T07:21:44.861287219Z stderr F {"level":"error","ts":1654586504.8609176,"caller":"app/repeat.go:31","msg":"jmkiuZkGk RrWCYYJbwMf bCZRfJssj HAxhqMQsGCTAnO aBrRwy QxTDyPXs VZEaQEzdZT zOYVOJ","stacktrace":"main.printLog\n\t/go/src/app/repeat.go:31\nmain.Repeat\n\t/go/src/app/repeat.go:55\nmain.main\n\t/go/src/app/repeat.go:74\nruntime.main\n\t/usr/local/go/src/runtime/proc.go:250"}
2022-06-07T07:21:44.861296616Z stderr F {"level":"info","ts":1654586504.8609385,"caller":"app/repeat.go:35","msg":"dfGdCBt XNMLiIjRAbz JVrNy mZwsvVi zkjKKo"}
2022-06-07T07:21:44.861303693Z stderr F {"level":"error","ts":1654586504.860952,"caller":"app/repeat.go:31","msg":"LGPn oIVZFtuzkQ","stacktrace":"main.printLog\n\t/go/src/app/repeat.go:31\nmain.Repeat\n\t/go/src/app/repeat.go:55\nmain.main\n\t/go/src/app/repeat.go:74\nruntime.main\n\t/usr/local/go/src/runtime/proc.go:250"}
2022-06-07T07:21:44.861309685Z stderr F {"level":"info","ts":1654586504.8609755,"caller":"app/repeat.go:35","msg":"wImEDHH VpnBj htSucJYcyW TLDmSJZ BRjRm gsNUlXg pOgpBoFIg"}
2022-06-07T07:21:44.861315287Z stderr F {"level":"info","ts":1654586504.8609922,"caller":"app/repeat.go:35","msg":" dbxOepKxbwfD rzhysFbVTr ehQMmjNZauN"}
2022-06-07T07:21:44.861321191Z stderr F {"level":"info","ts":1654586504.8610017,"caller":"app/repeat.go:35","msg":"uOXUUGn NEZpQweAfNH huDeoDZZRuLl"}
2022-06-07T07:21:44.861374515Z stderr F {"level":"info","ts":1654586504.8610263,"caller":"app/repeat.go:35","msg":"HVJg HozkH zXksxpahZn CoPWUhkbXSJO eqXYGkgBp uDEJkYodU qwgdrvbG"}
2022-06-07T07:21:44.861390919Z stderr F {"level":"info","ts":1654586504.8610406,"caller":"app/repeat.go:35","msg":"kUyCC gVwqPGVArxzXMm gPrGoUvtV fMrjpJazC fnPcAKxFEuB scrPCJGKvU qaMhpTyMZvDA VWKgTvqGZFZ NCdGNtcJUCNo"}
2022-06-07T07:21:44.861397831Z stderr F {"level":"info","ts":1654586504.861058,"caller":"app/repeat.go:35","msg":"U aWKcELjFWhqjJ ISRzOoZvdvlzgF gObtAbR OnsZh VAJcuJtu"}
2022-06-07T07:21:44.861411087Z stderr F {"level":"error","ts":1654586504.8610864,"caller":"app/repeat.go:31","msg":"IaHpQc bhAyXY WmIqMOQyEyuSCU VQBxSDfXF dGoHpTGJBlm ZRSJgNcVZ FBfLvkAvmdeUO","stacktrace":"main.printLog\n\t/go/src/app/repeat.go:31\nmain.Repeat\n\t/go/src/app/repeat.go:55\nmain.main\n\t/go/src/app/repeat.go:74\nruntime.main\n\t/usr/local/go/src/runtime/proc.go:250"}
2022-06-07T07:21:44.861469919Z stderr F {"level":"info","ts":1654586504.8611133,"caller":"app/repeat.go:35","msg":"eQOybnK YmgZWYdvUNMVwT XKekVVDJQVw"}
2022-06-07T07:21:44.861476595Z stderr F {"level":"info","ts":1654586504.8611279,"caller":"app/repeat.go:35","msg":"r svNnik LIDxItlvMZQld nNfyI FDrnrdpSXUTeG rAfDBOQb qpBYQri QssKqmwNoyqnCH KNIQCvYVFRYE PAOKDr hYEjDVyxjSPg"}
2022-06-07T07:21:44.86148243Z stderr F {"level":"error","ts":1654586504.8611405,"caller":"app/repeat.go:31","msg":"gCdCC hsmRwtqed zEbSYXG koqdqpjgYKQqLc DZEgDeUqOlxcW UJUbqXoXOO ewcaPtoI","stacktrace":"main.printLog\n\t/go/src/app/repeat.go:31\nmain.Repeat\n\t/go/src/app/repeat.go:55\nmain.main\n\t/go/src/app/repeat.go:74\nruntime.main\n\t/usr/local/go/src/runtime/proc.go:250"}
2022-06-07T07:21:44.861488831Z stderr F {"level":"info","ts":1654586504.861157,"caller":"app/repeat.go:35","msg":"jkGCI ZHnqcGxRGFKE ELpDjHiishfPyC cRrYDeYoHM FyrlSj"}
2022-06-07T07:21:44.861494491Z stderr F {"level":"info","ts":1654586504.8611767,"caller":"app/repeat.go:35","msg":"YtdxWnfA qmKwp hBarzi xqGNkzFYSJ"}
2022-06-07T07:21:44.861546386Z stderr F {"level":"info","ts":1654586504.8611984,"caller":"app/repeat.go:35","msg":"Pbob rqUChAFUbb YXTsG QVjYRJbb dgTWJcxsLqLFEt ijGyeICqh GhxItlYtHXRJ bgaczevOTTWMEb SiiHH xyomaq"}
2022-06-07T07:21:44.86155554Z stderr F {"level":"info","ts":1654586504.8612087,"caller":"app/repeat.go:35","msg":"Z rhWekOm"}
2022-06-07T07:21:44.861561194Z stderr F {"level":"info","ts":1654586504.8612316,"caller":"app/repeat.go:35","msg":"nOzOrH"}
2022-06-07T07:21:44.861567405Z stderr F {"level":"info","ts":1654586504.8612468,"caller":"app/repeat.go:35","msg":"gxvvw mymSNs CiGmOqWZrq Jxlgdf mHnpBD ktZLeLRFdAOWJo GfgxjS iHjPBRYHX"}
2022-06-07T07:21:44.861573627Z stderr F {"level":"info","ts":1654586504.8612554,"caller":"app/repeat.go:35","msg":"fRaf lTvmrTHL VKwWCHP"}
2022-06-07T07:21:44.861579442Z stderr F {"level":"error","ts":1654586504.8612754,"caller":"app/repeat.go:31","msg":"onm yUJCu VCdXBI zCQFRktbCng aqAQLfbpQg QgJhwD WcjTWN dCxfH tRXEiDdlZEuufY YseoF","stacktrace":"main.printLog\n\t/go/src/app/repeat.go:31\nmain.Repeat\n\t/go/src/app/repeat.go:55\nmain.main\n\t/go/src/app/repeat.go:74\nruntime.main\n\t/usr/local/go/src/runtime/proc.go:250"}
2022-06-07T07:21:44.861585347Z stderr F {"level":"warn","ts":1654586504.8613017,"caller":"app/repeat.go:33","msg":" uChUWiMWlpuUM cKXvnqYAyVi dlYShCEG"}
2022-06-07T07:21:44.861642552Z stderr F {"level":"info","ts":1654586504.86132,"caller":"app/repeat.go:35","msg":" gInrZ hyQIpdk WvaTvD bxpToFIqDfbT bCzDEnebMCo"}
2022-06-07T07:21:44.861648548Z stderr F {"level":"warn","ts":1654586504.861345,"caller":"app/repeat.go:33","msg":"lbqrxzLYQ IFhWCEwHnUwP NaqIEseK gYFMEWQm lszkMMs HkbZqi EEhLgfpnHt"}
2022-06-07T07:21:44.861661013Z stderr F {"level":"info","ts":1654586504.8613648,"caller":"app/repeat.go:35","msg":"iXwc HErQKAxISl ssPloiufE YNjgDG JEnxoMHhwp jEUHabmVHYqKfq uXMgdUDbVdeghd"}
2022-06-07T07:21:44.861667027Z stderr F {"level":"error","ts":1654586504.8613813,"caller":"app/repeat.go:31","msg":"xXPz kCyfSzjROe yDcQyPOiHQ lOMRmEPr Cqpsn vDWXKc TBvqxMACCnBMac SOenTZRggfE eIaUTUxCMPDed","stacktrace":"main.printLog\n\t/go/src/app/repeat.go:31\nmain.Repeat\n\t/go/src/app/repeat.go:55\nmain.main\n\t/go/src/app/repeat.go:74\nruntime.main\n\t/usr/local/go/src/runtime/proc.go:250"}
2022-06-07T07:21:44.861818622Z stderr F {"level":"error","ts":1654586504.8614092,"caller":"app/repeat.go:31","msg":"PVgLBJgR hqJiaaQdghSH ZFZIe fwCfkvnbEnlfBx nNzgGo rjCVuS aYBMFxLZYxezr xBJcYelXeF","stacktrace":"main.printLog\n\t/go/src/app/repeat.go:31\nmain.Repeat\n\t/go/src/app/repeat.go:55\nmain.main\n\t/go/src/app/repeat.go:74\nruntime.main\n\t/usr/local/go/src/runtime/proc.go:250"}
2022-06-07T07:21:44.861828162Z stderr F {"level":"info","ts":1654586504.8614337,"caller":"app/repeat.go:35","msg":"AVImKYj ZwUYuzW wTghYxdsNiGX isOFfyIeYy hQvksRirvwwzO"}
2022-06-07T07:21:44.861835238Z stderr F {"level":"info","ts":1654586504.8614414,"caller":"app/repeat.go:35","msg":" lRtSbtVzxhRLq"}
2022-06-07T07:21:44.861841589Z stderr F {"level":"error","ts":1654586504.8614492,"caller":"app/repeat.go:31","msg":"XCC EmDfTnkPorbZ","stacktrace":"main.printLog\n\t/go/src/app/repeat.go:31\nmain.Repeat\n\t/go/src/app/repeat.go:55\nmain.main\n\t/go/src/app/repeat.go:74\nruntime.main\n\t/usr/local/go/src/runtime/proc.go:250"}
2022-06-07T07:21:44.861848239Z stderr F {"level":"info","ts":1654586504.8614686,"caller":"app/repeat.go:35","msg":"A tKuOPelxd cEvTxvybTiIsQ kqrrfINFNXd"}
2022-06-07T07:21:44.861926003Z stderr F {"level":"info","ts":1654586504.8614793,"caller":"app/repeat.go:35","msg":"pleLHqo ZxetOD GfLozgKyb OsFLz XAPWZTcSCZSk"}
2022-06-07T07:21:44.861934675Z stderr F {"level":"info","ts":1654586504.8614898,"caller":"app/repeat.go:35","msg":"QMgMVAS KOoUNDyM vAqkg SnTOkIJ qOazAAfxhOABzf"}
2022-06-07T07:21:44.86202407Z stderr F {"level":"error","ts":1654586504.8614976,"caller":"app/repeat.go:31","msg":"FCc qLLrbKZs","stacktrace":"main.printLog\n\t/go/src/app/repeat.go:31\nmain.Repeat\n\t/go/src/app/repeat.go:55\nmain.main\n\t/go/src/app/repeat.go:74\nruntime.main\n\t/usr/local/go/src/runtime/proc.go:250"}
2022-06-07T07:21:44.862114905Z stderr F {"level":"info","ts":1654586504.8615153,"caller":"app/repeat.go:35","msg":""}
2022-06-07T07:21:44.862175588Z stderr F {"level":"info","ts":1654586504.8615248,"caller":"app/repeat.go:35","msg":"abxP GwnTNYyPJU gqmajZKhc IeaoyEPWlZv OctBUtt"}
2022-06-07T07:21:44.862182456Z stderr F {"level":"warn","ts":1654586504.861534,"caller":"app/repeat.go:33","msg":"ImMyB XwqcBeMpXU vILnw DctQRUiY"}
2022-06-07T07:21:44.862189976Z stderr F {"level":"error","ts":1654586504.861565,"caller":"app/repeat.go:31","msg":"uwxGUvvA OKNEcKfFfljunt wWdBQTqxXOXVK akTOkXOmhFZXBl QckGweR JZsrHrBxklnMG nzMEKdzQBvv Dmotroun mXuQNZ wukewXRK gGLGngCBLMYeU qeIhSFTr","stacktrace":"main.printLog\n\t/go/src/app/repeat.go:31\nmain.Repeat\n\t/go/src/app/repeat.go:55\nmain.main\n\t/go/src/app/repeat.go:74\nruntime.main\n\t/usr/local/go/src/runtime/proc.go:250"}
2022-06-07T07:21:44.862195547Z stderr F {"level":"warn","ts":1654586504.8616047,"caller":"app/repeat.go:33","msg":"RTJA CVJcqffLEjeXy eaSCyJuSb QjCAJvHl NYxznJ NZYcWUsnXeO LxwEhwod ueqqm WcXgBK"}
2022-06-07T07:21:44.862371889Z stderr F {"level":"info","ts":1654586504.861623,"caller":"app/repeat.go:35","msg":"JQASsGuz AjXODb aiGykCJMoTQPqg Qmvvrpct IMXSnd ZWnSkEsrZrLGv"}
2022-06-07T07:21:44.862430168Z stderr F {"level":"warn","ts":1654586504.8616369,"caller":"app/repeat.go:33","msg":"hGQ rLGiiOpoYOJ YVYZUK USOtj NQmxYcFnmafRo"}
2022-06-07T07:21:44.862437839Z stderr F {"level":"info","ts":1654586504.8616536,"caller":"app/repeat.go:35","msg":"NooYuxPG vPPwRuOkM tzXGpHgpqFO"}
2022-06-07T07:21:44.862442984Z stderr F {"level":"warn","ts":1654586504.8616624,"caller":"app/repeat.go:33","msg":" gHZibSCSUuk aDdToUf WynhFQpOR"}
2022-06-07T07:21:44.862448954Z stderr F {"level":"info","ts":1654586504.8616717,"caller":"app/repeat.go:35","msg":"joi CXdGBcLAZTm MzuAzIYqsy llyKBYWN"}
2022-06-07T07:21:44.862454545Z stderr F {"level":"warn","ts":1654586504.8616846,"caller":"app/repeat.go:33","msg":"xNBqUqZQ lfyHFRaknXXeO tJrwkUQAC DBwnwI lKQQiZTUBlX ejxUVqh UxxUXMdPAg TEGdXpStZt yQixWxtx"}
2022-06-07T07:21:44.862460121Z stderr F {"level":"info","ts":1654586504.861696,"caller":"app/repeat.go:35","msg":"S jExfXocjDWvo aDENaKX HWUBzrrME EMDOGubImj btACghdtMQlzl"}
2022-06-07T07:21:44.862472491Z stderr F {"level":"info","ts":1654586504.8617063,"caller":"app/repeat.go:35","msg":"DNel IgTOLogw VJQWzEwdal RAFFzJjryXu FLorjVgqaIV"}
2022-06-07T07:21:44.862484686Z stderr F {"level":"error","ts":1654586504.8617227,"caller":"app/repeat.go:31","msg":"j UvCST iFaQkX WUxSd RjFOLhKXvTcpq hwUGXKm fTlvRvcv zZltYrYPVRF UCrrIYB","stacktrace":"main.printLog\n\t/go/src/app/repeat.go:31\nmain.Repeat\n\t/go/src/app/repeat.go:55\nmain.main\n\t/go/src/app/repeat.go:74\nruntime.main\n\t/usr/local/go/src/runtime/proc.go:250"}
2022-06-07T07:21:44.862495063Z stderr F {"level":"warn","ts":1654586504.8617444,"caller":"app/repeat.go:33","msg":"a zvKrFZfAgur nNBjY HhkYtyvsuDsM ZvWUHXEZM RRecC IEeWwCJamT AHVjCnes"}
2022-06-07T07:21:44.862503774Z stderr F {"level":"info","ts":1654586504.8617747,"caller":"app/repeat.go:35","msg":"sHIgFyc DOhFTcLgq bfQOlhBVG DrLbnqKhEdWpSU"}
2022-06-07T07:21:44.862509721Z stderr F {"level":"info","ts":1654586504.8617845,"caller":"app/repeat.go:35","msg":"y FeJPw VyLHjmwPchyJah FxglyVIKjLli"}
2022-06-07T07:21:44.862515046Z stderr F {"level":"info","ts":1654586504.861793,"caller":"app/repeat.go:35","msg":"uiEE hStLw qlcuDbNMMM"}
2022-06-07T07:21:44.862520668Z stderr F {"level":"info","ts":1654586504.8618062,"caller":"app/repeat.go:35","msg":" VzpIwgP GiOlHhjPgYhLZy CZSokKqDvXCh zcDJYb lBVRq QyVmGHyrfKJct RcZtAzEKYELH"}
2022-06-07T07:21:44.86252639Z stderr F {"level":"info","ts":1654586504.8618252,"caller":"app/repeat.go:35","msg":"Hf xHTBDhiNLWkKlr xIAEoRrT YZOOmSd sOaDfcZiNLHA uofQovMRFiUxA NbcziQIa nojMTSFqXbP"}
2022-06-07T07:21:44.862532104Z stderr F {"level":"info","ts":1654586504.861845,"caller":"app/repeat.go:35","msg":" LnAMTX HYWsHlifdf PrLXMmV oTrjtKHzysEaQ ACMKGJ tasihcq nmcmJwTPKrNiN uIJlEP gKxQfzaXp"}
2022-06-07T07:21:44.862537476Z stderr F {"level":"info","ts":1654586504.8618531,"caller":"app/repeat.go:35","msg":"vv rzOCo"}
2022-06-07T07:21:44.86254329Z stderr F {"level":"info","ts":1654586504.8618708,"caller":"app/repeat.go:35","msg":"VPFA QByAtU FEveRjbxOTx YCHEppNXYEiqYI WvIQso eSTWl LSrrBhXwq"}
2022-06-07T07:21:44.862548909Z stderr F {"level":"info","ts":1654586504.8618894,"caller":"app/repeat.go:35","msg":"InUZoJhQu bFieG QtAbAhycPKRGr PNZOEWiKKu EULfdpyRQyMfs JdyOveDE GrNxTtAYlwXVm DJsFhIwy jihKZXb PNYJNhuMJFBNw YHLfK"}
2022-06-07T07:21:44.862554765Z stderr F {"level":"info","ts":1654586504.8619049,"caller":"app/repeat.go:35","msg":"oiOapnb zoBZgd ygnPceQZHi FCnuMTbUy TrBnHrPRce"}
2022-06-07T07:21:44.862560214Z stderr F {"level":"info","ts":1654586504.8619153,"caller":"app/repeat.go:35","msg":"wNoyJhDB BvqwOAlDZeH grouDbQj"}
2022-06-07T07:21:44.862565879Z stderr F {"level":"info","ts":1654586504.8619268,"caller":"app/repeat.go:35","msg":"CqLSr mbXFUyfNgRytCO LDYnUMXbsgizo"}
2022-06-07T07:21:44.86257135Z stderr F {"level":"info","ts":1654586504.8619385,"caller":"app/repeat.go:35","msg":"uNpCn aUieYIqMDowA breQdXb axCnNNAUv ZeiUnS XHwvokmumvzP OYsAfhFk"}
2022-06-07T07:21:44.862580058Z stderr F {"level":"info","ts":1654586504.8619492,"caller":"app/repeat.go:35","msg":"i FcyACIvIO dikyylhqmIxN KaWhAMyDPsZ YWCqEgWxkVTCl"}
2022-06-07T07:21:44.862585277Z stderr F {"level":"info","ts":1654586504.8619726,"caller":"app/repeat.go:35","msg":"VM iLzqmdyyRGk GEpTqA KQCBW xUZSgaIGWcxKRq"}
2022-06-07T07:21:44.862590454Z stderr F {"level":"warn","ts":1654586504.861983,"caller":"app/repeat.go:33","msg":"GRRGH NAoXMvVQ KEwjBLLswwTME"}
2022-06-07T07:21:44.862595519Z stderr F {"level":"info","ts":1654586504.8619945,"caller":"app/repeat.go:35","msg":"VgflthBhp XASmXsCuIT"}
2022-06-07T07:21:44.86260052Z stderr F {"level":"warn","ts":1654586504.8620183,"caller":"app/repeat.go:33","msg":"HgimyytX SVwfvpMyOMAB EMNhRJfqyq PLPvpeoozO axPFmPcHivm IdYMqMbCbiN uDQftxkN tniGK jFcOqxAKHu zCrcSkWR VToKkVqjFnww xzspWS"}
2022-06-07T07:21:44.862608131Z stderr F {"level":"info","ts":1654586504.8620422,"caller":"app/repeat.go:35","msg":"CJLcdh LXwmgEGnWq pGhFf IkCMkk GxhIHdiCSXFhxk zkQGTFScMsRdml PVnphyWKTAAxWF opNPokE JhvjkhYWKjxt"}
2022-06-07T07:21:44.86261797Z stderr F {"level":"error","ts":1654586504.8620496,"caller":"app/repeat.go:31","msg":"ubpCF","stacktrace":"main.printLog\n\t/go/src/app/repeat.go:31\nmain.Repeat\n\t/go/src/app/repeat.go:55\nmain.main\n\t/go/src/app/repeat.go:74\nruntime.main\n\t/usr/local/go/src/runtime/proc.go:250"}
2022-06-07T07:21:44.862623526Z stderr F {"level":"info","ts":1654586504.8620842,"caller":"app/repeat.go:35","msg":"fvuXE MnJBZbM NkBDLGnJXjlsW mArpikXenGqFUo cDhdRlubBgAg WcIQUgCYfsok hOTJnr BXGofNZJyiv lcMHi"}
2022-06-07T07:21:44.862628799Z stderr F {"level":"info","ts":1654586504.862095,"caller":"app/repeat.go:35","msg":"umHJxDol eTtcgUxyW"}
2022-06-07T07:21:44.862633768Z stderr F {"level":"info","ts":1654586504.8621056,"caller":"app/repeat.go:35","msg":"DNkXLhJ MqPwuzHovTtyN XxeJipMBESn DsWTitwCCUaKn"}
2022-06-07T07:21:44.862638942Z stderr F {"level":"warn","ts":1654586504.862117,"caller":"app/repeat.go:33","msg":"Y vvciplrukKgqKt eleBsoVbYtGll CyeLM"}
2022-06-07T07:21:44.86264449Z stderr F {"level":"warn","ts":1654586504.8621378,"caller":"app/repeat.go:33","msg":"yN SHnSWRVJKyZC xSncIkQwd ETSes"}
2022-06-07T07:21:44.86264982Z stderr F {"level":"warn","ts":1654586504.8621516,"caller":"app/repeat.go:33","msg":"XOySwdXx hwcDkovH jVivJvAwvYRV bXZDbn LOCmjBHPZilz YEFTQ pvXPknOHrDa DQDzw kyROFzN QThkFYLd"}
2022-06-07T07:21:44.862660226Z stderr F {"level":"warn","ts":1654586504.8621707,"caller":"app/repeat.go:33","msg":"OsGdAPH Zbuir"}
2022-06-07T07:21:44.862665563Z stderr F {"level":"warn","ts":1654586504.8621857,"caller":"app/repeat.go:33","msg":"jCokSXF XrJemKjQ JDtPBdKigoV uFDVwYOCZY oYagu GxiItcmNfphC jPqKUSLl EWFPTYrpkZEVdi MfsVQ yBQXQ kqNSuz rCVMP"}
2022-06-07T07:21:44.862670707Z stderr F {"level":"info","ts":1654586504.8622036,"caller":"app/repeat.go:35","msg":"LB GEPqoyvgno HqIzGndGPdiP JxguiupafEs UeNaU"}
2022-06-07T07:21:44.862676252Z stderr F {"level":"warn","ts":1654586504.862221,"caller":"app/repeat.go:33","msg":" PZyyjVuNTGl AHTGCnOBA dWTVZDnxiSuJ uMwpp KXkPXwLkqWIlA btyndqEBby"}
2022-06-07T07:21:44.862681377Z stderr F {"level":"info","ts":1654586504.8622367,"caller":"app/repeat.go:35","msg":"kqrg oJqgpCIoqBP"}
2022-06-07T07:21:44.862687091Z stderr F {"level":"info","ts":1654586504.8622465,"caller":"app/repeat.go:35","msg":"y vgsau weISlrt otUWnZTuoxdc WyiOO"}
2022-06-07T07:21:44.862695139Z stderr F {"level":"info","ts":1654586504.862259,"caller":"app/repeat.go:35","msg":"jNdv FqNcA DuYiJM MPfEJujvdodecm"}
2022-06-07T07:21:44.862700364Z stderr F {"level":"info","ts":1654586504.862273,"caller":"app/repeat.go:35","msg":"leztd CeSAkei RsaXir SoyJSQaulnlz srvINZyjUNHWBR sNpiIPLh"}
2022-06-07T07:21:44.862705682Z stderr F {"level":"info","ts":1654586504.8622859,"caller":"app/repeat.go:35","msg":"MeCOCRY SWqCcoVy sVtAViqcq RunnZN KXWPbFdUGpXYr dQbnzDfg"}
2022-06-07T07:21:44.862711078Z stderr F {"level":"info","ts":1654586504.8623025,"caller":"app/repeat.go:35","msg":"YGrrNLPN WBWGpiBp LvDhmU jhNKlQHIonH YTcMpT eqeCJSFewxt BtMzhbtKXwNfto"}
2022-06-07T07:21:44.862724416Z stderr F {"level":"error","ts":1654586504.862321,"caller":"app/repeat.go:31","msg":"XhiueS iRPwwnQyOnwL dRcSISzJuqaWs uSMdkGJeLYXxh JEoJPhaJeOYWRS fUFVN pLhSxAf heXquoPP PEdzOliaHFA YUdwHTy","stacktrace":"main.printLog\n\t/go/src/app/repeat.go:31\nmain.Repeat\n\t/go/src/app/repeat.go:55\nmain.main\n\t/go/src/app/repeat.go:74\nruntime.main\n\t/usr/local/go/src/runtime/proc.go:250"}
2022-06-07T07:21:44.862731361Z stderr F {"level":"info","ts":1654586504.862348,"caller":"app/repeat.go:35","msg":""}
2022-06-07T07:22:44.909014411Z stderr F {"level":"info","ts":1654586564.9087455,"caller":"app/repeat.go:35","msg":"dZd zrXfPrwvoTgL pByVH RRtsguDMfIO hEPjMAsrdFlo ZrXYkEfI CNKdO"}
2022-06-07T07:22:44.909794331Z stderr F {"level":"info","ts":1654586564.9094038,"caller":"app/repeat.go:35","msg":"xoOEUu rXfJaFBFaZeQq ddbETkJtb"}
2022-06-07T07:22:44.909852101Z stderr F {"level":"info","ts":1654586564.9094896,"caller":"app/repeat.go:35","msg":"mFGhNY MuAoevuzZKv"}
2022-06-07T07:22:44.909908677Z stderr F {"level":"info","ts":1654586564.9095237,"caller":"app/repeat.go:35","msg":"UqyAWOehf IZvFzmQbeIfs xTzTB QGADzvQRRnBb"}
2022-06-07T07:22:44.909916604Z stderr F {"level":"warn","ts":1654586564.9095492,"caller":"app/repeat.go:33","msg":"f ZocPD pNcjzKuWrcJzHW"}
2022-06-07T07:22:44.909922737Z stderr F {"level":"info","ts":1654586564.9096053,"caller":"app/repeat.go:35","msg":"jhK lccgHT qSEFFDBsvwGgFp kzxEwpynZH SlVOuUteQ DcglCD"}
2022-06-07T07:22:44.909932142Z stderr F {"level":"info","ts":1654586564.909659,"caller":"app/repeat.go:35","msg":"lpxKzOY oJESDIGeb XKWRABmx RSoBDA gRYJEXYyrsyXro vlMMsNN NATAbHObjNnY WEfjjUS NzsJrDZCkrAzVH yRZOUHMnBkvL ZihtmVU yuwWtUQC"}
2022-06-07T07:22:44.909938674Z stderr F {"level":"warn","ts":1654586564.9097211,"caller":"app/repeat.go:33","msg":"UyuUDGdu oAAXmMtiWofC AlMUdNoHnsmpZ"}
2022-06-07T07:22:44.909954336Z stderr F {"level":"info","ts":1654586564.9097903,"caller":"app/repeat.go:35","msg":"dFjUMqR eQYbDU jVFth RbtrwSGiRm kdXBDYKvulcJy YKaXbdP CSgPAy kHtpSSSABe qTnmwlRb MUGpTzOUcD dIdsRUIiBgyX"}
2022-06-07T07:22:44.909970693Z stderr F {"level":"info","ts":1654586564.9098454,"caller":"app/repeat.go:35","msg":" tEKqeLiSosuQe lZOPyWnQnV ofxQgCLFeTk TiZYDER"}
2022-06-07T07:22:44.909976649Z stderr F {"level":"info","ts":1654586564.9098806,"caller":"app/repeat.go:35","msg":"pqcH CkAdqQ UMeFGH tUdSNa SuoUCXiY MVZzTzMZyLGnTr IAazAQDygCKziW lOKxbcgJaRWUG uFEcY"}
2022-06-07T07:22:44.90999085Z stderr F {"level":"info","ts":1654586564.909933,"caller":"app/repeat.go:35","msg":" mYBsOfjcRr FQWHQkyqkq iFbLaHphz NzpQC CikwOtaP DogVTcS dtJRseY"}
2022-06-07T07:22:44.910023742Z stderr F {"level":"info","ts":1654586564.9099784,"caller":"app/repeat.go:35","msg":"NCzpXsah gfTjkghiSw lYdRYVnNtxke vNonHybOJKt CAZUMnsMsVtcU QBPugvlHwtr hksrFfC iJzJIOkKf JZUffRBxTLhp DTOCDMDVX"}
2022-06-07T07:22:44.910087505Z stderr F {"level":"info","ts":1654586564.9100347,"caller":"app/repeat.go:35","msg":" SoVxDtbJxu"}
2022-06-07T07:22:44.910133841Z stderr F {"level":"warn","ts":1654586564.9100866,"caller":"app/repeat.go:33","msg":"TCpBZihbL eNaUNbezi VKJOcJ YKSHengnDdJJM PDERaGYIrqmq lUIHbY DMtxbsz"}
2022-06-07T07:22:44.910186382Z stderr F {"level":"info","ts":1654586564.9101446,"caller":"app/repeat.go:35","msg":" DKlvMgmBOnzcY lcFcUhu FzhrVfhmkfsxw SszrJ wGBQgnKpCskorI fzxvmaDgtcNBZS"}
2022-06-07T07:22:44.910328277Z stderr F {"level":"info","ts":1654586564.9101927,"caller":"app/repeat.go:35","msg":"suQRCYhiw rNWqmYdums VdDOAz EhrVqzuuFNBnwq FzWxXQZaFhEDq"}
2022-06-07T07:22:44.910338282Z stderr F {"level":"info","ts":1654586564.9102414,"caller":"app/repeat.go:35","msg":"XYt kJaCpLdFXpik BUkYwSyNh IJhnFPrbNN COBmIlLCxCKsMz mzdcZsVfpYt qtMbR QaTJar iZHSwwwGHnbX tCZvnjGPtlSGK YIMnUzoxdlAy"}
2022-06-07T07:22:44.910344526Z stderr F {"level":"warn","ts":1654586564.910259,"caller":"app/repeat.go:33","msg":"ZsD JPMdP FYfkWdNZvQiL ckxhg eocOt xqTKDJpkFcLx UtJPKXbmp yLwSj jqPCzixpOkDqSr GQZBLnmOp sHafqHXeiCRav wCxfK"}
2022-06-07T07:22:44.910350532Z stderr F {"level":"info","ts":1654586564.9102693,"caller":"app/repeat.go:35","msg":"lqTHpYhc DgiNabbO irWpIPfJMiDB"}
2022-06-07T07:22:44.910390451Z stderr F {"level":"info","ts":1654586564.9102793,"caller":"app/repeat.go:35","msg":"Cs JkgEzzu Ekkbw BtlidDLc"}
2022-06-07T07:22:44.910447979Z stderr F {"level":"error","ts":1654586564.9103248,"caller":"app/repeat.go:31","msg":"ZpHfv tefRHBrOaNIRF iFGGyF","stacktrace":"main.printLog\n\t/go/src/app/repeat.go:31\nmain.Repeat\n\t/go/src/app/repeat.go:55\nmain.main\n\t/go/src/app/repeat.go:74\nruntime.main\n\t/usr/local/go/src/runtime/proc.go:250"}
2022-06-07T07:22:44.910483078Z stderr F {"level":"info","ts":1654586564.9103684,"caller":"app/repeat.go:35","msg":"irsaMvJj oTvvZiB OHEVnOtVSQ yshWJyYoPMMv BVbSo GCeRMWchbXt vwWQEEJa VmWaqehO sLnOmHJBX fFOrqjtHo"}
2022-06-07T07:22:44.910530155Z stderr F {"level":"info","ts":1654586564.9103823,"caller":"app/repeat.go:35","msg":"xoK PQFSiVTa KrrJtqBFubUQfK wpFOKVjSzx JTYKvZPZG ZaeOilItCx"}
2022-06-07T07:22:44.910538258Z stderr F {"level":"warn","ts":1654586564.9104185,"caller":"app/repeat.go:33","msg":"bZ hNutEwoyi BTsFXjDhOuHWof xQzlacwFjEf fELalcBr"}
2022-06-07T07:22:44.910603887Z stderr F {"level":"info","ts":1654586564.9104412,"caller":"app/repeat.go:35","msg":"bbqiNt yrXphr tAmtJnYl egmHNxP GiyMITv dntQRU IMGfTWtlNv VyDBDivhGwJET bkGCOORtCFYbNj"}
2022-06-07T07:22:44.910624319Z stderr F {"level":"info","ts":1654586564.9104562,"caller":"app/repeat.go:35","msg":"WdMF KuaTkaog nbSZNFrIViYU xaMonjzQS"}
2022-06-07T07:22:44.910709917Z stderr F {"level":"info","ts":1654586564.9104924,"caller":"app/repeat.go:35","msg":"mopTc gwLMCqdAlCQ FMoyKmTtp BZoGrrG cdwcNTkAJ Skdmma rvSllLnVkGIz eQyJlkdc"}
2022-06-07T07:22:44.910731082Z stderr F {"level":"error","ts":1654586564.9105144,"caller":"app/repeat.go:31","msg":"RlHQwFQ PjGVAcmzqmH juouZA aPUkcCmHWQNBQ weNloWgavSw MrkEEHyK FVeZPZmiWWRgE gxCUrbnkOjrln DXbjC","stacktrace":"main.printLog\n\t/go/src/app/repeat.go:31\nmain.Repeat\n\t/go/src/app/repeat.go:55\nmain.main\n\t/go/src/app/repeat.go:74\nruntime.main\n\t/usr/local/go/src/runtime/proc.go:250"}
2022-06-07T07:22:44.910739053Z stderr F {"level":"info","ts":1654586564.9105475,"caller":"app/repeat.go:35","msg":"JGJW IxsJGjHpkwf BNBvRQDKk UKSFnKhqxGp"}
2022-06-07T07:22:44.910784445Z stderr F {"level":"info","ts":1654586564.9105806,"caller":"app/repeat.go:35","msg":"F iTjkfa LTUuIuLaTtxmHI"}
2022-06-07T07:22:44.910822036Z stderr F {"level":"info","ts":1654586564.9106,"caller":"app/repeat.go:35","msg":"QAHKES rlniY SjgSSq mfscECsUmECXp rJBGyXNY qjynAkBpkojy MxrazHyOoNKr"}
2022-06-07T07:22:44.910829221Z stderr F {"level":"info","ts":1654586564.9106176,"caller":"app/repeat.go:35","msg":"NVBq vXoMWNKuSu oHjUBSKv zhdxFIq wfXaCEex NxNeTxAydWioiV wLCucEcCvQuR"}
2022-06-07T07:22:44.910873767Z stderr F {"level":"warn","ts":1654586564.9106326,"caller":"app/repeat.go:33","msg":"LoU ouqdGCRrvhO WPUZqdLkWTyGl VjvSjkPdo"}
2022-06-07T07:22:44.910880988Z stderr F {"level":"error","ts":1654586564.910666,"caller":"app/repeat.go:31","msg":" KafcOmak DoQlOdW","stacktrace":"main.printLog\n\t/go/src/app/repeat.go:31\nmain.Repeat\n\t/go/src/app/repeat.go:55\nmain.main\n\t/go/src/app/repeat.go:74\nruntime.main\n\t/usr/local/go/src/runtime/proc.go:250"}
2022-06-07T07:22:44.910937656Z stderr F {"level":"info","ts":1654586564.9106858,"caller":"app/repeat.go:35","msg":"G dzWZEjNzXo VOnYKJvtrH HcQsVWUG EvDQwP adgqqstEk"}
2022-06-07T07:22:44.910946245Z stderr F {"level":"info","ts":1654586564.9107044,"caller":"app/repeat.go:35","msg":"dybrgLH boUjlJTJ gmMEzsSTinieS"}
2022-06-07T07:22:44.910952698Z stderr F {"level":"info","ts":1654586564.9107168,"caller":"app/repeat.go:35","msg":" dmILbK"}
2022-06-07T07:22:44.910958977Z stderr F {"level":"info","ts":1654586564.9107573,"caller":"app/repeat.go:35","msg":"S yKjUMoeaMgM THJqXhktjFR AGAormhR lBvYprwOVhR lNOuqmqJye mwMeNbZPAdaTvm yOtzUjmbc ajISDecF"}
2022-06-07T07:22:44.910965312Z stderr F {"level":"warn","ts":1654586564.9108043,"caller":"app/repeat.go:33","msg":"DKHfNkLZ BrCzqjtHhncBl IaqTZjzCC ZWXSovDk wJrOrrnsCGltnQ YkdNTggRW WOfYxvvfix tvmgovhRONAQFD ukoAMkxbEyk nflCZ"}
2022-06-07T07:22:44.911002097Z stderr F {"level":"info","ts":1654586564.910841,"caller":"app/repeat.go:35","msg":"FZfL fkhyJhoycF LRZsnfjNPU pKNmLBptj YeFvsgzwLqvmsu iVdVQrSWVZxfHf bqYchtv Yhkvhzg"}
2022-06-07T07:22:44.911040597Z stderr F {"level":"warn","ts":1654586564.910878,"caller":"app/repeat.go:33","msg":"mGr RUlIjBNTOCAho kBjbomSceYuDtd GlbntWp EKsUhGIpa pWxNuWNXHORRH cGtHYSaIdA PkEvSlhPBqxP XykERUiSMgcS"}
2022-06-07T07:22:44.911046467Z stderr F {"level":"info","ts":1654586564.9108925,"caller":"app/repeat.go:35","msg":"XHc fRRumyXro"}
2022-06-07T07:22:44.911052793Z stderr F {"level":"info","ts":1654586564.9109051,"caller":"app/repeat.go:35","msg":"ChfpHc RdbYTzOZI iwOdqzYaaXNPj jGbEpQzSaJ wVVgcvsNijDYd soGlxirvukf"}
2022-06-07T07:22:44.911104668Z stderr F {"level":"warn","ts":1654586564.9109573,"caller":"app/repeat.go:33","msg":"UZLzgzKH sVffMGrDgHDC SudgiPXA cRHIlTtCWDP puOFEvlU QOePYhoYzGvlbO guiVX XFPOmy DjCUkKAhJ ApUdgMSeY RahONZvcjwCBK wJZiU VXmBkmt WqYNilgiVZb JLwlypEqrlloO"}
2022-06-07T07:22:44.911111524Z stderr F {"level":"info","ts":1654586564.9109724,"caller":"app/repeat.go:35","msg":"Tqrep"}
2022-06-07T07:22:44.911145399Z stderr F {"level":"warn","ts":1654586564.910991,"caller":"app/repeat.go:33","msg":"pgArkJGV UzyHFfyH mlZShVR loCWnGpqY YXCucPVaUKHy VSCDAhQM vlEhpWT oVOqSjzq MJOQqTsGkMkl hnmqHPMCfYyLqk qxGpAhUAer lGTaEu tuznthwYAqdVT"}
2022-06-07T07:22:44.91119371Z stderr F {"level":"info","ts":1654586564.9110415,"caller":"app/repeat.go:35","msg":"bXCkqxE bNVKMBMeMTjJCG QbMNh fnvErOEcgR iTiMCELpkG fEZoQgOZqzA"}
2022-06-07T07:22:44.911199888Z stderr F {"level":"info","ts":1654586564.9110582,"caller":"app/repeat.go:35","msg":"gVrp xPPLatfZbYT opkVvOdMfvzz"}
2022-06-07T07:22:44.911205685Z stderr F {"level":"info","ts":1654586564.9110737,"caller":"app/repeat.go:35","msg":"CQBvKRat eMPmiGm PMPJC YptVTnuf fYUlUvCwN ITlzGxfXedfrw sWUOnYTkfkPdQ RHkJanNsTHLFDn AtnkggZa"}
2022-06-07T07:22:44.911244691Z stderr F {"level":"info","ts":1654586564.9110866,"caller":"app/repeat.go:35","msg":"ZYTzjj meKkUQO"}
2022-06-07T07:22:44.911293117Z stderr F {"level":"warn","ts":1654586564.9111001,"caller":"app/repeat.go:33","msg":"ErvhXaonX gDsVCn gLfQno AcxknikYXIz IseecKLZ qUlpzSNP wLGRfPR nlczk"}
2022-06-07T07:22:44.911301359Z stderr F {"level":"info","ts":1654586564.9111457,"caller":"app/repeat.go:35","msg":"EQcrCNg KgUYPsHEIecR ZraUjElbbQRg aXovUQVkjafN NnVAO qGeYteqiVHRm"}
2022-06-07T07:22:44.911306864Z stderr F {"level":"info","ts":1654586564.9111617,"caller":"app/repeat.go:35","msg":"bjcDKg fPPchtFLqDFI ZIeEWIMQEuY AcFkvwJOUO BvEwir YSBrESWf"}
2022-06-07T07:22:44.911312774Z stderr F {"level":"info","ts":1654586564.9111826,"caller":"app/repeat.go:35","msg":"fbMiAEnp rAhsiHSVQmd dfmrqAC hpcTJKtufO MVFPbAsLJpNF TskoWoKjUh nOetm"}
2022-06-07T07:22:44.911355128Z stderr F {"level":"info","ts":1654586564.9112165,"caller":"app/repeat.go:35","msg":"ZMlA rAqKLYHNQB RbKQOsBDumW vAVNwFsFecU"}
2022-06-07T07:22:44.911375085Z stderr F {"level":"warn","ts":1654586564.911226,"caller":"app/repeat.go:33","msg":"qEgxJC zhXomDvvSPcQf UkFCZKTwZ"}
2022-06-07T07:22:44.911381442Z stderr F {"level":"error","ts":1654586564.911238,"caller":"app/repeat.go:31","msg":"kG GNXFqWrEgF YkoiXnNk qZPCvmdlFWNT EgAZisO KrMxv","stacktrace":"main.printLog\n\t/go/src/app/repeat.go:31\nmain.Repeat\n\t/go/src/app/repeat.go:55\nmain.main\n\t/go/src/app/repeat.go:74\nruntime.main\n\t/usr/local/go/src/runtime/proc.go:250"}
2022-06-07T07:22:44.911459221Z stderr F {"level":"error","ts":1654586564.9112628,"caller":"app/repeat.go:31","msg":"tHBk LppuX OphhmVnv KknSR lrCJQSkWSrKPs YuGPbtdKNkaE SNdxp","stacktrace":"main.printLog\n\t/go/src/app/repeat.go:31\nmain.Repeat\n\t/go/src/app/repeat.go:55\nmain.main\n\t/go/src/app/repeat.go:74\nruntime.main\n\t/usr/local/go/src/runtime/proc.go:250"}
2022-06-07T07:22:44.911467319Z stderr F {"level":"info","ts":1654586564.9113235,"caller":"app/repeat.go:35","msg":"w uMRwEnbPEdSszh VIpwO fffyRvhTZFJ yFpQMveDNmOQGd fuCsgtFO vlhaPcDtFTyeg baDaHrs"}
2022-06-07T07:22:44.911473068Z stderr F {"level":"info","ts":1654586564.9113486,"caller":"app/repeat.go:35","msg":"lqrWdEYi ANfkPtjGKGlTUL WXumyl zdzUBJAipfWEAz QJwuWj DSBXJ IENljarUcao wWYWEhbiresjRC OkaIPVIQH bPOlIfG hqNLcjFehz BsUhYvR"}
2022-06-07T07:22:44.91150368Z stderr F {"level":"info","ts":1654586564.9113824,"caller":"app/repeat.go:35","msg":"QKphvZTXi HrFTj LYrOnkwIqQjP IquEi"}
2022-06-07T07:22:44.9115102Z stderr F {"level":"info","ts":1654586564.9114006,"caller":"app/repeat.go:35","msg":"wLO njcNBArzjV viCBHRoFel ztbTdPUshHp jInot loMkYKsAU MBoUghvu"}
2022-06-07T07:22:44.911554341Z stderr F {"level":"info","ts":1654586564.9114172,"caller":"app/repeat.go:35","msg":"sOuPvnSs OBjsyvCfwRqjuL EmYnWVmFx oxVyJW mHmGa GhQtPCHV MWZJcUBhUM AEdkeJoKm wmOyEC CKmjNX LJLcabscw"}
2022-06-07T07:22:44.911560797Z stderr F {"level":"info","ts":1654586564.9114335,"caller":"app/repeat.go:35","msg":" StUfYyKoxsTFl sgyPfSnKB pMOaOPL cWyYN CYuvlPxfpU hlTMGhJoY rVGHEW"}
2022-06-07T07:22:44.911580896Z stderr F {"level":"warn","ts":1654586564.9114668,"caller":"app/repeat.go:33","msg":"rrixpabnT TsnGvhEYLqF pQnleRD rcIkpR IrKOlhy sfKpHACs HwbRgoIZedaA"}
2022-06-07T07:22:44.911607541Z stderr F {"level":"warn","ts":1654586564.9114807,"caller":"app/repeat.go:33","msg":"TTYzBj"}
2022-06-07T07:22:44.911685876Z stderr F {"level":"info","ts":1654586564.9114912,"caller":"app/repeat.go:35","msg":"oAlNaAw dGwJbI OnofaSsL"}
2022-06-07T07:22:44.911694738Z stderr F {"level":"info","ts":1654586564.911505,"caller":"app/repeat.go:35","msg":"VvQ pCJCvpoMGD zYdnGAzMB WVPmHHh KRzHccFueG lfmQUgBoswB ysEcSGFo"}
2022-06-07T07:22:44.911700227Z stderr F {"level":"info","ts":1654586564.9115167,"caller":"app/repeat.go:35","msg":"cdxI EWrErrJ FtSrd WnWoL ZdEqF ANkWNxrRsj OQWIDAR"}
2022-06-07T07:22:44.911705942Z stderr F {"level":"info","ts":1654586564.9115534,"caller":"app/repeat.go:35","msg":"o eByMQMeoU AOcxPdRrJRjPoz YqLyGPmW szzftJM QxGOEQjh PuMSvvUbZO"}
2022-06-07T07:22:44.911711342Z stderr F {"level":"error","ts":1654586564.9115689,"caller":"app/repeat.go:31","msg":"csIu fynNXnAoPeUdAO","stacktrace":"main.printLog\n\t/go/src/app/repeat.go:31\nmain.Repeat\n\t/go/src/app/repeat.go:55\nmain.main\n\t/go/src/app/repeat.go:74\nruntime.main\n\t/usr/local/go/src/runtime/proc.go:250"}
2022-06-07T07:22:44.911723152Z stderr F {"level":"error","ts":1654586564.911604,"caller":"app/repeat.go:31","msg":"Vr ILVeYn EvPtpao KzxpgDPhKdd GlqeNzbow XNemNRDzr JHAatO tzzFPmCCXc pFUjCxCyHGT","stacktrace":"main.printLog\n\t/go/src/app/repeat.go:31\nmain.Repeat\n\t/go/src/app/repeat.go:55\nmain.main\n\t/go/src/app/repeat.go:74\nruntime.main\n\t/usr/local/go/src/runtime/proc.go:250"}
2022-06-07T07:22:44.911782846Z stderr F {"level":"info","ts":1654586564.911649,"caller":"app/repeat.go:35","msg":"tWoBj MkIlqVa gDXMocoyFUrBcY uwBYmKAhfaqwF uBYrrkLyXNc zrmhD YoFbiga boPWywecCP"}
2022-06-07T07:22:44.911792575Z stderr F {"level":"warn","ts":1654586564.9116628,"caller":"app/repeat.go:33","msg":"Xf kOtqZqrOV uRjYWRiCymGUEu dEHEUr"}
2022-06-07T07:22:44.911821484Z stderr F {"level":"info","ts":1654586564.9116786,"caller":"app/repeat.go:35","msg":"ncvHaN eaLtcRJUZ UgQjMsgoIO nmvbj wNiRjhyVbxSTfe kTURCSnAqAlGoB hhHNldNluzIph LcIZO HjszEAh MWczdbJwqTGeub"}
2022-06-07T07:22:44.911828383Z stderr F {"level":"info","ts":1654586564.9116952,"caller":"app/repeat.go:35","msg":"aCAIvttYR wbSJXRApmIgqIg UzDuDpByWqqpV LiShHX JgTXTnPx galqN AFzAPfST ZUThjgdDi GmMxMMVuScOdcA"}
2022-06-07T07:22:44.911833922Z stderr F {"level":"error","ts":1654586564.9117284,"caller":"app/repeat.go:31","msg":"VXOJH UvAditQH cEPkUPp GqrrLNosKwsTHe jmwcWWdMZZ","stacktrace":"main.printLog\n\t/go/src/app/repeat.go:31\nmain.Repeat\n\t/go/src/app/repeat.go:55\nmain.main\n\t/go/src/app/repeat.go:74\nruntime.main\n\t/usr/local/go/src/runtime/proc.go:250"}
2022-06-07T07:22:44.911839762Z stderr F {"level":"warn","ts":1654586564.9117472,"caller":"app/repeat.go:33","msg":"g TZbkZzOvtyw PzsThCzddg TdzTtORaiuBI yREeuFKR qdjiZsGgRbtr"}
2022-06-07T07:22:44.911920736Z stderr F {"level":"info","ts":1654586564.911801,"caller":"app/repeat.go:35","msg":"wrEmUgZpF ZFGGHNqAYKC GIOkUA BUtOqutupEPAR"}
2022-06-07T07:22:44.911927782Z stderr F {"level":"info","ts":1654586564.9118128,"caller":"app/repeat.go:35","msg":" zUHDcgTl"}
2022-06-07T07:22:44.911960546Z stderr F {"level":"info","ts":1654586564.9118216,"caller":"app/repeat.go:35","msg":"O CLHww OnAfSNL fmPUErPO"}
2022-06-07T07:22:44.912008865Z stderr F {"level":"info","ts":1654586564.9118361,"caller":"app/repeat.go:35","msg":"uWqmPaG BNQsn WmrVeucKxC KaHKdUXFRNWGMD cPHqcIFcQGZE yJTmFLWXC bIgweDvJ cKcUqdINSbonMi hRtXIgLJfl"}
2022-06-07T07:22:44.912014974Z stderr F {"level":"info","ts":1654586564.9118466,"caller":"app/repeat.go:35","msg":"I hpnCIL PRIaVTaxPKsjo GrTuVcY rDDnlz afdIyy"}
2022-06-07T07:22:44.91202672Z stderr F {"level":"warn","ts":1654586564.911878,"caller":"app/repeat.go:33","msg":"DolRarfH hOuEOtqxm zQWvWPIx KQisAMxwHyQ xwPzKj nDJUorNPP"}
2022-06-07T07:22:44.912038172Z stderr F {"level":"info","ts":1654586564.9118977,"caller":"app/repeat.go:35","msg":" nEvQGVCMKqIu DRsvxj TsWYN jQxvKR TBmFyS bKTAr mcHchS SELWPtDAqw"}
2022-06-07T07:22:44.91204693Z stderr F {"level":"info","ts":1654586564.9119205,"caller":"app/repeat.go:35","msg":"NA rjUuntbUPR XCCsDvsjGBI zoIjSMVm nmwjBB ddkQDgUaPcs nkhII krbYD lUlgtYqEWwLBhS"}
2022-06-07T07:22:44.912105374Z stderr F {"level":"info","ts":1654586564.911934,"caller":"app/repeat.go:35","msg":" FXEzmfjtN"}
2022-06-07T07:22:44.912112717Z stderr F {"level":"info","ts":1654586564.9119682,"caller":"app/repeat.go:35","msg":"sRGwB AjqNw OzRQIQMSUaLUnS aoaOOigrPUO"}
2022-06-07T07:22:44.912118595Z stderr F {"level":"info","ts":1654586564.9119797,"caller":"app/repeat.go:35","msg":"nYuPy CVwLMbxgnHik UayLBzjCSc eXblwX"}
2022-06-07T07:22:44.912148141Z stderr F {"level":"info","ts":1654586564.9119933,"caller":"app/repeat.go:35","msg":"jNH qeQGynLwreCfq Xqufzgu SVZsNErzQPY yiIUfeQ AmgWM"}
2022-06-07T07:22:44.912155353Z stderr F {"level":"info","ts":1654586564.9120088,"caller":"app/repeat.go:35","msg":"MMaUDve jUwvAdElCM TkjLIfCXEsPHJS TBkcjNqhvfLNyt eYvqlSjdREOE EmEwSQOz xUZvVJrYls"}
2022-06-07T07:22:44.912189321Z stderr F {"level":"info","ts":1654586564.9120185,"caller":"app/repeat.go:35","msg":"omBfWu irZza matgMlznVMl"}
2022-06-07T07:22:44.912199338Z stderr F {"level":"info","ts":1654586564.9120505,"caller":"app/repeat.go:35","msg":"LSsfrqZ aYcdHomdDU CLuJh HBhclicel IaKUBTKaagcdFJ"}
2022-06-07T07:22:44.912205777Z stderr F {"level":"error","ts":1654586564.9120631,"caller":"app/repeat.go:31","msg":"zV lVshpyPtGtwrv vSjgyMejFujRY ZFRNaHIFwKgpH tVRdOrcxMwopH hlLLrnHryHbR bscwPgLFXP","stacktrace":"main.printLog\n\t/go/src/app/repeat.go:31\nmain.Repeat\n\t/go/src/app/repeat.go:55\nmain.main\n\t/go/src/app/repeat.go:74\nruntime.main\n\t/usr/local/go/src/runtime/proc.go:250"}
2022-06-07T07:22:44.912211242Z stderr F {"level":"info","ts":1654586564.9120817,"caller":"app/repeat.go:35","msg":"XShzDV DTksMEEspi WUNhezpdC POyxtbCWIelJgG OZloumLiiCib"}
2022-06-07T07:22:44.912229148Z stderr F {"level":"warn","ts":1654586564.9121003,"caller":"app/repeat.go:33","msg":"rsyLJv bjJLMeTPnv KFDWRtEBwnLGe KiPbYoZ CzDfyUkV nTZeWb CjHffLgevmOCxQ aFGlOanFGFt tqkHnYAFE ETwWaVRahW"}
2022-06-07T07:22:44.912235368Z stderr F {"level":"error","ts":1654586564.912139,"caller":"app/repeat.go:31","msg":"pelW PGtQvhm CcWFPjDARovJq cRbiIlqDdny ndVyFUhfkwgd vkHYNimOlYjR jiEalrgUkZKvX","stacktrace":"main.printLog\n\t/go/src/app/repeat.go:31\nmain.Repeat\n\t/go/src/app/repeat.go:55\nmain.main\n\t/go/src/app/repeat.go:74\nruntime.main\n\t/usr/local/go/src/runtime/proc.go:250"}
2022-06-07T07:22:44.912241368Z stderr F {"level":"info","ts":1654586564.9121637,"caller":"app/repeat.go:35","msg":"dkMqb mVDPLKC"}
2022-06-07T07:23:44.942922185Z stderr F {"level":"info","ts":1654586624.9427319,"caller":"app/repeat.go:35","msg":" XBgLxwfOJQHTG EicgfvjTYDp PgGgZmYySfA"}
2022-06-07T07:23:44.942969864Z stderr F {"level":"warn","ts":1654586624.9428027,"caller":"app/repeat.go:33","msg":"XVdoGYEx apMDEpXmDdm pNBhtxbqM"}
2022-06-07T07:23:44.9429783Z stderr F {"level":"info","ts":1654586624.942814,"caller":"app/repeat.go:35","msg":"YruGwZ fbpBgJ NRwFJGoNkTqk"}
2022-06-07T07:23:44.943088017Z stderr F {"level":"warn","ts":1654586624.942997,"caller":"app/repeat.go:33","msg":"UA uMSXAQje CMaJJX stHECyKg"}
2022-06-07T07:23:44.943118687Z stderr F {"level":"info","ts":1654586624.9430447,"caller":"app/repeat.go:35","msg":"oUgkvriON nhPoFQCXugxLg cpKMUZCm IahEnucaSs DzeIovkcAuo"}
2022-06-07T07:23:44.943234943Z stderr F {"level":"error","ts":1654586624.9431267,"caller":"app/repeat.go:31","msg":"BPKPhqd CloNPIVT LMvrJDVtEY fqfBH pJgAcfwEtbC mTkdItkGeXqGXB bHlGhfYE wALCKKDzGF VntEhnAGDIt xUBqUPBiV EqvfOETeiSYlJ ErwngwXwfQqF","stacktrace":"main.printLog\n\t/go/src/app/repeat.go:31\nmain.Repeat\n\t/go/src/app/repeat.go:55\nmain.main\n\t/go/src/app/repeat.go:74\nruntime.main\n\t/usr/local/go/src/runtime/proc.go:250"}
2022-06-07T07:23:44.943247537Z stderr F {"level":"info","ts":1654586624.9431767,"caller":"app/repeat.go:35","msg":"bXeeQvyN hkCWT TQwZzdFnuQAb xjLwddKgQG"}
2022-06-07T07:23:44.943255406Z stderr F {"level":"info","ts":1654586624.9431877,"caller":"app/repeat.go:35","msg":"cEpkw oXqQUsquFRJbGY"}
2022-06-07T07:23:44.943268164Z stderr F {"level":"info","ts":1654586624.9431987,"caller":"app/repeat.go:35","msg":"KiStzTmz MmXrzjs bgrVDpepL RaYEGZqHnR"}
2022-06-07T07:23:44.943314864Z stderr F {"level":"info","ts":1654586624.9432285,"caller":"app/repeat.go:35","msg":"njwIZmL wHBdqB PqVLC"}
2022-06-07T07:23:44.943330991Z stderr F {"level":"info","ts":1654586624.9432788,"caller":"app/repeat.go:35","msg":" PgCbslHtvETMUU JlyrUrnwWarEk FJeZLOpX"}
2022-06-07T07:23:44.943449489Z stderr F {"level":"info","ts":1654586624.9433498,"caller":"app/repeat.go:35","msg":"jxjcf NrpjHkCPavqV"}
2022-06-07T07:23:44.94345908Z stderr F {"level":"info","ts":1654586624.9433727,"caller":"app/repeat.go:35","msg":"nTLWX PgwINghVzrJzrq RrontbrDOnqF WAMQrcoJZHfZn ylxnSYzNIflUdW PhGInmIYxFvAAb mNWuZwDYMb zrrTkEV"}
2022-06-07T07:23:44.94354012Z stderr F {"level":"warn","ts":1654586624.9433875,"caller":"app/repeat.go:33","msg":" hIbHEKTGwnZZPM FEvAJRHhvtfC BTFRklAQrZFXYG FzPgSUe beShgTJIUra ywxGwCCjf PQxiemddbIz"}
2022-06-07T07:23:44.943575506Z stderr F {"level":"error","ts":1654586624.9434302,"caller":"app/repeat.go:31","msg":"s WIMQmztQjKzOjA urFfjzPpEGN LehnkI FhZggAfHvtt PiNFE CiBPhiMtryFtBH uMSpSKdHrmsTx UvpeUYTCkmyGRt","stacktrace":"main.printLog\n\t/go/src/app/repeat.go:31\nmain.Repeat\n\t/go/src/app/repeat.go:55\nmain.main\n\t/go/src/app/repeat.go:74\nruntime.main\n\t/usr/local/go/src/runtime/proc.go:250"}
2022-06-07T07:23:44.943583074Z stderr F {"level":"info","ts":1654586624.9434762,"caller":"app/repeat.go:35","msg":"czdcEkP stMGlAqw vUGLVPljyTm BmrUQoRgOKqp qUpWcdt vGCuCQvz rzeYlU oLACWCJtuSYETy JOsQQgUxSkG"}
2022-06-07T07:23:44.943589006Z stderr F {"level":"info","ts":1654586624.9434917,"caller":"app/repeat.go:35","msg":"jJ vFpMGkR esledd gFBbPE WVqmYOVIdD"}
2022-06-07T07:23:44.943595403Z stderr F {"level":"info","ts":1654586624.943506,"caller":"app/repeat.go:35","msg":"nAa pmKpD pGHGYvaSAlJY SLXIEIEB dESAldJzfHDQ PzpmhfuVnmH pDjGUIZjiOrNe JBuGOrIzSXRooy"}
2022-06-07T07:23:44.943601457Z stderr F {"level":"info","ts":1654586624.943524,"caller":"app/repeat.go:35","msg":"lqKYKgg SVDTOfnJS mDdFARhLQGBa vsNcVRaDgh uhcYebtkdDZyyc"}
2022-06-07T07:23:44.943623817Z stderr F {"level":"info","ts":1654586624.9435484,"caller":"app/repeat.go:35","msg":"XAqspCg DQbCONyRUI ToPVBvQKJDT qJsJmUvw BKmWOIGPRys ZypnxIGQAHgZR"}
2022-06-07T07:23:44.943652052Z stderr F {"level":"info","ts":1654586624.9435806,"caller":"app/repeat.go:35","msg":"EMHWEm CgtMKce LeCoZQf gKpgdBQhshCmB XcmAs kMYWvM"}
2022-06-07T07:23:44.943688067Z stderr F {"level":"info","ts":1654586624.943617,"caller":"app/repeat.go:35","msg":"L BnHdvkFs fGfRJ DSnKXqvfcMAK"}
2022-06-07T07:23:44.943740745Z stderr F {"level":"warn","ts":1654586624.9436536,"caller":"app/repeat.go:33","msg":"xtinHy LTeITb flzZTPaW rcZuCZGHhKFOGN QOqaAkcYcafn VLsnbWt"}
2022-06-07T07:23:44.943791272Z stderr F {"level":"info","ts":1654586624.943669,"caller":"app/repeat.go:35","msg":"sQnXKNus BKlsoJq irMLAG EOlMfgXbguCJr lUhMCGpoNWl KIwJZfOLX"}
2022-06-07T07:23:44.943828164Z stderr F {"level":"info","ts":1654586624.9436839,"caller":"app/repeat.go:35","msg":"JOMZ WyVsnDyhmOQvU DtcJEJZMnTrj zABJc znlVMSxcA JtwhMoB mrePVXqrt keVMVGPC"}
2022-06-07T07:23:44.943903507Z stderr F {"level":"info","ts":1654586624.9437065,"caller":"app/repeat.go:35","msg":"exUy HHYgueY peGKubsLseZT hkHVS TxpMqjVqWUwa BGQIrMqiI IzwbP tbnLuxL bhmBNA WWbSSIOhHTn zsSAf sDmLyEECQKPhn"}
2022-06-07T07:23:44.943924Z stderr F {"level":"info","ts":1654586624.9437182,"caller":"app/repeat.go:35","msg":"eyl zuAJcpmTfaQub yvwNLhv HwmAeqRvSk hwWTSTJgyI"}
2022-06-07T07:23:44.944010833Z stderr F {"level":"info","ts":1654586624.9437315,"caller":"app/repeat.go:35","msg":"PR QyGssPCB XhtdwMcvQHSySh zbsJxFUJ wERPT OYlZcCule MyewZ HngEmaFCT"}
2022-06-07T07:23:44.944031329Z stderr F {"level":"warn","ts":1654586624.9437492,"caller":"app/repeat.go:33","msg":"JrzatNKJI TQirRFdUJDvg guBLeg OeaxUI bLApmEi MYLXXYUiiUsf XaKYsQaIN"}
2022-06-07T07:23:44.944037329Z stderr F {"level":"warn","ts":1654586624.9437857,"caller":"app/repeat.go:33","msg":"rRZQxmk fKxAheFdPI xYUAdElx klxoutz sadrEmhkg cDggHqFBHkYL"}
2022-06-07T07:23:44.94404342Z stderr F {"level":"info","ts":1654586624.9438052,"caller":"app/repeat.go:35","msg":"nzHEy LCGYqYT oQtZRBqrKe CofWHvXhFJaCz gVtxJmLmJXsKH kbsoLiryJsr"}
2022-06-07T07:23:44.944094732Z stderr F {"level":"info","ts":1654586624.9438303,"caller":"app/repeat.go:35","msg":"z NGqjBbSh dBKSMIwYFeBvW ygUrNzJJNnxyc xLdydzfJbM xkqYwrVJRNiEWT EzJmAs yyrfzgIrEYpVe dhWcw XvEGbkUvK WfKiJY"}
2022-06-07T07:23:44.944134086Z stderr F {"level":"info","ts":1654586624.9438522,"caller":"app/repeat.go:35","msg":"YAuAap AuuwOUAjBytu ugZtJPFoa fJNdcMxGfKOej ECDJoBjayOU uEMByCJRnulrS EAKSrigDbKcLV DVrNGntA QQsjDU JOKOEtu"}
2022-06-07T07:23:44.944234649Z stderr F {"level":"error","ts":1654586624.9438705,"caller":"app/repeat.go:31","msg":"VrjE nbWXMtoAivx GUSVLtclipuLL SxOxL BqfhbOkgTHSuM SnThGlpcqlseeY","stacktrace":"main.printLog\n\t/go/src/app/repeat.go:31\nmain.Repeat\n\t/go/src/app/repeat.go:55\nmain.main\n\t/go/src/app/repeat.go:74\nruntime.main\n\t/usr/local/go/src/runtime/proc.go:250"}
2022-06-07T07:23:44.944270624Z stderr F {"level":"warn","ts":1654586624.9438992,"caller":"app/repeat.go:33","msg":"PwWOD wzoDtdGfYQnIr XviAlqUoiWWi EHusJDGxK aqeJFbI"}
2022-06-07T07:23:44.944303844Z stderr F {"level":"info","ts":1654586624.9439147,"caller":"app/repeat.go:35","msg":"ncJymUI fLFAqmi LfnBOIqZuUq ZRQoOXmrOhV"}
2022-06-07T07:23:44.944345115Z stderr F {"level":"warn","ts":1654586624.9439352,"caller":"app/repeat.go:33","msg":"px qNBKuwszLJl GAHRkeSqnE evOyiwGyrSfoo jBbHQcZSUdbXz fttdh mFoVHnBOvK nYvcs GsuXiGPWbNzKtb PdATFcFTbgHl"}
2022-06-07T07:23:44.944364541Z stderr F {"level":"info","ts":1654586624.9439473,"caller":"app/repeat.go:35","msg":"rXWhilC dSHnr trsmZDMciGx peXjJAlNgsuz"}
2022-06-07T07:23:44.944384649Z stderr F {"level":"info","ts":1654586624.9439616,"caller":"app/repeat.go:35","msg":" PUQZCIijyyt NCKGBGuGlY"}
2022-06-07T07:23:44.944391443Z stderr F {"level":"info","ts":1654586624.9439778,"caller":"app/repeat.go:35","msg":"E MUWlyhCAYp HxTVoAgC lCOVcoM"}
2022-06-07T07:23:44.94446614Z stderr F {"level":"info","ts":1654586624.9439871,"caller":"app/repeat.go:35","msg":"UwhV ShzQpY iLlZvxk"}
2022-06-07T07:23:44.944487614Z stderr F {"level":"info","ts":1654586624.9440033,"caller":"app/repeat.go:35","msg":"eaRpGIxdo aymmptY QbgtvLi OZeHIm NSNUwq WrGkbTaarAoEKg"}
2022-06-07T07:23:44.944494066Z stderr F {"level":"error","ts":1654586624.9440265,"caller":"app/repeat.go:31","msg":"ZO mOFFktqZqx IYCgCBlAlCZou XvjIJmTea CYEhdSkQZEen NCzbj GTLHPveEoKQ","stacktrace":"main.printLog\n\t/go/src/app/repeat.go:31\nmain.Repeat\n\t/go/src/app/repeat.go:55\nmain.main\n\t/go/src/app/repeat.go:74\nruntime.main\n\t/usr/local/go/src/runtime/proc.go:250"}
2022-06-07T07:23:44.944558131Z stderr F {"level":"info","ts":1654586624.9440582,"caller":"app/repeat.go:35","msg":"xMrxaGB lNoOUtKBthokgu PQdYoo"}
2022-06-07T07:23:44.94458553Z stderr F {"level":"warn","ts":1654586624.9440913,"caller":"app/repeat.go:33","msg":"dfsQ KnPAaJNIaV nfgHWRpvZw rPvapshCUr vKSiq EPOTsT zHIWVO RrnjiWX"}
2022-06-07T07:23:44.944604595Z stderr F {"level":"info","ts":1654586624.9441087,"caller":"app/repeat.go:35","msg":"e zZHBOFiFnVtuM zKDfxfXcQeXXFq"}
2022-06-07T07:23:44.9446418Z stderr F {"level":"error","ts":1654586624.9441211,"caller":"app/repeat.go:31","msg":"NO AaqwiW OONuMLvzzlIA EqBvEpgHKXfcTG ozDgsTlL","stacktrace":"main.printLog\n\t/go/src/app/repeat.go:31\nmain.Repeat\n\t/go/src/app/repeat.go:55\nmain.main\n\t/go/src/app/repeat.go:74\nruntime.main\n\t/usr/local/go/src/runtime/proc.go:250"}
2022-06-07T07:23:44.944680445Z stderr F {"level":"info","ts":1654586624.9441419,"caller":"app/repeat.go:35","msg":"pOM CcAVoBhnI MUxKxQZytxkB"}
2022-06-07T07:23:44.944688157Z stderr F {"level":"info","ts":1654586624.9441535,"caller":"app/repeat.go:35","msg":"fg LFpNVnja QXEIPK QvBDHxQKnaZaW QHSTHDSXTQV JRioEtXL"}
2022-06-07T07:23:44.944694797Z stderr F {"level":"info","ts":1654586624.944161,"caller":"app/repeat.go:35","msg":"soPB"}
2022-06-07T07:23:44.944731649Z stderr F {"level":"info","ts":1654586624.9441752,"caller":"app/repeat.go:35","msg":"bRMGDW oXgwApBeTHoeBn OTLUXgLKPQuv bWSlpr fKMgXSikc KaitqsF SOTkXCTzdCcH eYqCiAta"}
2022-06-07T07:23:44.944843054Z stderr F {"level":"info","ts":1654586624.9441967,"caller":"app/repeat.go:35","msg":" yqjGH hQroa oJddmBkIXUk PUrRHsCVeGP QxSbs"}
2022-06-07T07:23:44.944866158Z stderr F {"level":"info","ts":1654586624.9442122,"caller":"app/repeat.go:35","msg":"uozPXx AfzulctwWrtkKQ eeQFgjicPIdUN qgKRZWczBfkao kWjCei qIptYbb ITfOcKSYh"}
2022-06-07T07:23:44.944932997Z stderr F {"level":"info","ts":1654586624.944229,"caller":"app/repeat.go:35","msg":"LUgGalJcF baFnn aaiTXC BqxeclFkA NITGPNxZ qwbPLiCAC"}
2022-06-07T07:23:44.944958757Z stderr F {"level":"warn","ts":1654586624.944245,"caller":"app/repeat.go:33","msg":"zvGtP WtDewRnWNZeMe eclWyOalMIpA zVbWo VfoUAMQOftWNG"}
2022-06-07T07:23:44.944965294Z stderr F {"level":"error","ts":1654586624.944259,"caller":"app/repeat.go:31","msg":"vscX tAKGqTyTOxj tpORT","stacktrace":"main.printLog\n\t/go/src/app/repeat.go:31\nmain.Repeat\n\t/go/src/app/repeat.go:55\nmain.main\n\t/go/src/app/repeat.go:74\nruntime.main\n\t/usr/local/go/src/runtime/proc.go:250"}
2022-06-07T07:23:44.945004835Z stderr F {"level":"warn","ts":1654586624.9442823,"caller":"app/repeat.go:33","msg":"VFLsUc XwoiQiYECL MtQhhbIGB GvgZr NndLRMZeMwKPGL gbENQBhChoffe"}
2022-06-07T07:23:44.945012167Z stderr F {"level":"info","ts":1654586624.9442961,"caller":"app/repeat.go:35","msg":"quKDoIfFo UejDxxFOFC CsXbTwBmfQ ULeSsm reCmjNYpHAbDOA tKNVHxpyizTq DKKdyZWHrZxld"}
2022-06-07T07:23:44.945018224Z stderr F {"level":"info","ts":1654586624.9443228,"caller":"app/repeat.go:35","msg":"lXjYdsA uQvEd xMrnAse cGQilrVTiSxXlB BXoZC izyWSzSoTDIGr kqcuwClKOxel mgIlItM rlSjtHLwEgQFYZ mAPjQ DgyGXrkXt"}
2022-06-07T07:23:44.945023542Z stderr F {"level":"info","ts":1654586624.9443398,"caller":"app/repeat.go:35","msg":"wpIoodUGd QmHHcJ ZAIka BjRVF GpyIdjKpPXhH ZeqzRSqjO OVzjfMUBOT hblrOQlb zGnxEoiZom"}
2022-06-07T07:23:44.945030037Z stderr F {"level":"info","ts":1654586624.9443605,"caller":"app/repeat.go:35","msg":"fJ cKHsrKjB EHofZaIdxUWBlQ OSLmDzjNQdt rTakiR uyYrnwrD IJhwIEsnamzEs SZgGI ybqwmDEQaP jPhaPe OPxOLzjrs"}
2022-06-07T07:23:44.945036301Z stderr F {"level":"info","ts":1654586624.9443865,"caller":"app/repeat.go:35","msg":"XTIKWYNu qkkfSDN PdfDlDWeopBEUe oHlXCMB fNAxeLUB XCkLPI DjGosvSqB ULXosxCCYHnG zGTTmhLYCuNBPj FLiEuSCyiQSJV SHWoukzlqd"}
2022-06-07T07:23:44.945042193Z stderr F {"level":"info","ts":1654586624.9444015,"caller":"app/repeat.go:35","msg":"hbO MtBAL txhOOJbxgHo YnsMwgPK"}
2022-06-07T07:23:44.9450474Z stderr F {"level":"info","ts":1654586624.944411,"caller":"app/repeat.go:35","msg":"vYKc OSmMtLkBc SwKYUj JpRuwUzhaXcgjh"}
2022-06-07T07:23:44.94505303Z stderr F {"level":"info","ts":1654586624.9444225,"caller":"app/repeat.go:35","msg":"z vhWVZplVqAPO"}
2022-06-07T07:23:44.945058463Z stderr F {"level":"info","ts":1654586624.9444325,"caller":"app/repeat.go:35","msg":"v IzJCvORtHXeYEv Cgjmfq HhKoAPpIt"}
2022-06-07T07:23:44.945063714Z stderr F {"level":"info","ts":1654586624.9444447,"caller":"app/repeat.go:35","msg":"YjnaW iWeOlMLgqsILW ViIQgR DQxYVDFjcU hCGgvMy"}
2022-06-07T07:23:44.945067538Z stderr F {"level":"info","ts":1654586624.9444637,"caller":"app/repeat.go:35","msg":" WtmwRK DgfpBCQ OFfDdGgTawXIcs FYUtpGnvtH sfKxbaXWpHBD AjUTkZdRnD sYglqDWjN"}
2022-06-07T07:23:44.945071442Z stderr F {"level":"warn","ts":1654586624.9444804,"caller":"app/repeat.go:33","msg":"Ylyud MNKtdWlthox yujxzhfcJtLh xsFkxRledpWCOk msqlHsLhBxCa fogVLyPqPJ"}
2022-06-07T07:23:44.945075412Z stderr F {"level":"info","ts":1654586624.9445019,"caller":"app/repeat.go:35","msg":" WHiEhl"}
2022-06-07T07:23:44.94507925Z stderr F {"level":"warn","ts":1654586624.9445097,"caller":"app/repeat.go:33","msg":"LaZkeRj"}
2022-06-07T07:23:44.945083686Z stderr F {"level":"info","ts":1654586624.9445193,"caller":"app/repeat.go:35","msg":"px OIEdXUj vzUpAUIQCzEiM yfDLEOnbDB jgqHa"}
2022-06-07T07:23:44.945089083Z stderr F {"level":"info","ts":1654586624.9445343,"caller":"app/repeat.go:35","msg":"H vPBcHWBDAWvK iDKCzFH dMUTijMUjxsXkH HIwrbOpbUW avKgNDzzBFq vLNHEBifiAWb"}
2022-06-07T07:23:44.945094248Z stderr F {"level":"info","ts":1654586624.9445534,"caller":"app/repeat.go:35","msg":"kjz uiPkW jLvSVdHpWQJrY hvmAcaFOq JfPbPquRoWAXU IKViUTjOKEVkro"}
2022-06-07T07:23:44.945114334Z stderr F {"level":"info","ts":1654586624.9445672,"caller":"app/repeat.go:35","msg":"HjwY qRmcdOqulqemgr JlVTpgiRRXyhFP"}
2022-06-07T07:23:44.945120286Z stderr F {"level":"info","ts":1654586624.944579,"caller":"app/repeat.go:35","msg":"TnskGCScR zGjqhkhmqbnd UMiNivBUFnvT WUxLjCUxzdHzt"}
2022-06-07T07:23:44.945125935Z stderr F {"level":"warn","ts":1654586624.9445941,"caller":"app/repeat.go:33","msg":"xkOHvY eakMrlGJL YRPKUxUZ xGmSewKZ TDwdYtfHrrBQCI"}
2022-06-07T07:23:44.94513222Z stderr F {"level":"warn","ts":1654586624.9446175,"caller":"app/repeat.go:33","msg":"HV eXfkrRpYJyKm JZbJwWMarriVA oTbIqN EPOeoRrcvfq iyfcCTRHR oUBQI"}
2022-06-07T07:23:44.945167462Z stderr F {"level":"info","ts":1654586624.9446366,"caller":"app/repeat.go:35","msg":"tImQUi gTXFhLFubcszE UxyuQ tqeCONNSNeFrS BJBzSs ZuBiaNiqF gkoNLi HDPtXUyWpgOEA smQTest"}
2022-06-07T07:23:44.945177222Z stderr F {"level":"info","ts":1654586624.9446542,"caller":"app/repeat.go:35","msg":"wqD ZNfOGH MMJcEHUU ZOkavnCyakuP yALwz lHyBI TKPIMWyNIdw uxtQLTED"}
2022-06-07T07:23:44.945183332Z stderr F {"level":"info","ts":1654586624.9446676,"caller":"app/repeat.go:35","msg":"JAsPuQcB ehuTPm lWQwaLtBskz CwAEqcfXpif NbWDENHXxIHA mGxFbx"}
2022-06-07T07:23:44.945200173Z stderr F {"level":"info","ts":1654586624.9447021,"caller":"app/repeat.go:35","msg":"CWfVQCl AEICjDOHKFhGo DNjFBKh rsqwmlLjsh shLbeKsVBGKcM"}
2022-06-07T07:23:44.945206777Z stderr F {"level":"info","ts":1654586624.9447138,"caller":"app/repeat.go:35","msg":"dQDY IXnlwpDId RZGlRdQ jHXDyRQ"}
2022-06-07T07:23:44.945212586Z stderr F {"level":"warn","ts":1654586624.9447243,"caller":"app/repeat.go:33","msg":"OZL TgnRlEvKQtnG QuQLE rRZavAmTFkwDF DYAyxi"}
2022-06-07T07:23:44.945220982Z stderr F {"level":"info","ts":1654586624.94474,"caller":"app/repeat.go:35","msg":"bfezNBXES PbTfOS LwmwFn tFgzIPJw"}
2022-06-07T07:23:44.945226267Z stderr F {"level":"info","ts":1654586624.9447496,"caller":"app/repeat.go:35","msg":"WHIfpAf aTdegveM NAoDUKIZQKEc"}
2022-06-07T07:23:44.945231552Z stderr F {"level":"info","ts":1654586624.9447732,"caller":"app/repeat.go:35","msg":"QJ nIuCFChQbvtY yNzPfKBW LQKcUJMPa wAwlFXI wyGmOvZ HkvqAUaY cUpyOoLAgKVtGQ UbHwpcq"}
2022-06-07T07:23:44.945237143Z stderr F {"level":"info","ts":1654586624.9447873,"caller":"app/repeat.go:35","msg":" rjZSRvoUwTo XZWqHRfYQ hSyrho"}
2022-06-07T07:23:44.945240993Z stderr F {"level":"info","ts":1654586624.9448063,"caller":"app/repeat.go:35","msg":"phMsXEKfl UTyCaVgxS RDPFwgunIPRngR qYwEZRnKEcAuOV cDGVFM aowFDJBIsQcbea enMKIK GVBEwFbGQmBk qVPonqajuK LbahFdNGD ewATUyVOOCmy wKuRcpXIOyI"}
2022-06-07T07:23:44.945247137Z stderr F {"level":"info","ts":1654586624.9448233,"caller":"app/repeat.go:35","msg":"rsfRGToST PHOaZYUX lyoirCNKiJRWrT kBlUnHZYbiO QGQDLVJnkezBn bjPSTkT"}
2022-06-07T07:23:44.945252367Z stderr F {"level":"info","ts":1654586624.944837,"caller":"app/repeat.go:35","msg":"clldNtgMw KArxpoA zCzgOM"}
2022-06-07T07:23:44.945257203Z stderr F {"level":"info","ts":1654586624.9448495,"caller":"app/repeat.go:35","msg":"XpHlwB lYumTYrwdYyLda"}
2022-06-07T07:23:44.94526086Z stderr F {"level":"info","ts":1654586624.9448588,"caller":"app/repeat.go:35","msg":"oApI IheFonZZsKCEs ovYlMvuuo"}
2022-06-07T07:23:44.945264962Z stderr F {"level":"warn","ts":1654586624.9448805,"caller":"app/repeat.go:33","msg":"zMlUaJDS sviQmAwIcEOw OxDqN GdUQIAbDef TKIrHPaCu XHlaw SnGkJnNbv nDvjRyVsBW qeRuWtWQyHz"}
2022-06-07T07:23:44.945268471Z stderr F {"level":"info","ts":1654586624.9448934,"caller":"app/repeat.go:35","msg":" riKaBEz DnFWso wfcjn"}
2022-06-07T07:23:44.94527272Z stderr F {"level":"warn","ts":1654586624.9449062,"caller":"app/repeat.go:33","msg":"kPkSYG IXniFvb nCwCf rfjpWeTLtOuWXl WoUUpThy DjCsonLlHLDBDT"}
2022-06-07T07:23:44.94528064Z stderr F {"level":"info","ts":1654586624.944921,"caller":"app/repeat.go:35","msg":"IpiqJM kepzmRa MLuXYDYWT dVxSjsDVTrW diUzzy GagtOyKKcRV ualFpHmGgzGfR"}
2022-06-07T07:23:44.945285816Z stderr F {"level":"info","ts":1654586624.94494,"caller":"app/repeat.go:35","msg":"cySgK SrvXDDc kLREXUBMLlg"}
2022-06-07T07:23:44.945297886Z stderr F {"level":"warn","ts":1654586624.944962,"caller":"app/repeat.go:33","msg":"bTmkpzN dWmdX nQyyeWWrFk qdMVBZRuh XrFypYKUZ HsYQgorEAZYiU omBCzzVfEVvJ GJhGSDdW"}
2022-06-07T07:24:45.003710913Z stderr F {"level":"info","ts":1654586685.0024934,"caller":"app/repeat.go:35","msg":" DgfRD"}
2022-06-07T07:24:45.003758075Z stderr F {"level":"error","ts":1654586685.0025413,"caller":"app/repeat.go:31","msg":"k TcBuAoSkyrGQFx hEtQbAeySsd fTOPGPgctev","stacktrace":"main.printLog\n\t/go/src/app/repeat.go:31\nmain.Repeat\n\t/go/src/app/repeat.go:55\nmain.main\n\t/go/src/app/repeat.go:74\nruntime.main\n\t/usr/local/go/src/runtime/proc.go:250"}
2022-06-07T07:24:45.003795516Z stderr F {"level":"info","ts":1654586685.002564,"caller":"app/repeat.go:35","msg":"KAv HJJzCxsrdCSlNb jEtFzqwPYTLL TzmGtNlX LjHGnbZVRRC ZKFwhzAHV kaZAnpyPVkS YKfBJgevNgvm"}
2022-06-07T07:24:45.003804607Z stderr F {"level":"info","ts":1654586685.0025768,"caller":"app/repeat.go:35","msg":" gWIUq jWHSSysFYmCQq jzjiIrvJobzbW hecrWEdzs NqkMfXAi bCMwrhtyyjxyEc FPaxebauxL Rwdyj xpYsJCWJk vGMRDrwu spLojvBrE"}
2022-06-07T07:24:45.003815959Z stderr F {"level":"info","ts":1654586685.0025828,"caller":"app/repeat.go:35","msg":"kqZPW LjembEz"}
2022-06-07T07:24:45.003823508Z stderr F {"level":"info","ts":1654586685.0026028,"caller":"app/repeat.go:35","msg":"BBsRmYOoX ycuZL sIYqQH iHlRuiTmN OLIruJG"}
2022-06-07T07:24:45.003830694Z stderr F {"level":"info","ts":1654586685.002609,"caller":"app/repeat.go:35","msg":"eMHa ejOfnyPIInhY AgLDcJDSJ beMmTNNI"}
2022-06-07T07:24:45.00383724Z stderr F {"level":"warn","ts":1654586685.0026155,"caller":"app/repeat.go:33","msg":"TSdO KLoypxN RtDJmbLhAhCqP QcEhkemVYx wGaQGVL"}
2022-06-07T07:24:45.003843379Z stderr F {"level":"warn","ts":1654586685.0026226,"caller":"app/repeat.go:33","msg":" ezdiXKOzyP jhrByVbGX hSgUnv bDIJWCtuhDF NphMQaSh"}
2022-06-07T07:24:45.003849816Z stderr F {"level":"warn","ts":1654586685.002643,"caller":"app/repeat.go:33","msg":" JiUsZCMokAUVjw YtMcEXvNro GvxoAWJ qcXUTyhedxg wTEFquOOXIC lTBNPBhhzKkr oXoYugFNoxCMKa"}
2022-06-07T07:24:45.003855047Z stderr F {"level":"info","ts":1654586685.0026495,"caller":"app/repeat.go:35","msg":"obvkbuqS lsJBU QOxOOmo IIBFoNF"}
2022-06-07T07:24:45.003859294Z stderr F {"level":"info","ts":1654586685.0026584,"caller":"app/repeat.go:35","msg":"nQYaonM LUyNehJwkNT YBczCwLQHudw"}
2022-06-07T07:24:45.003863248Z stderr F {"level":"info","ts":1654586685.0026648,"caller":"app/repeat.go:35","msg":" hxhAWR ixIdx hEqJKvgBm bWPIItzogQVlNd crWDUFv"}
2022-06-07T07:24:45.00386978Z stderr F {"level":"info","ts":1654586685.0026736,"caller":"app/repeat.go:35","msg":"txbj mIkAYHXOiWNpY QaoYKaQOkGJ xlbmJhDSBWyAD CDUqbMQsJmdp bvikRIcexol tMLvOzA cNVwWwKkdNnc"}
2022-06-07T07:24:45.003874143Z stderr F {"level":"info","ts":1654586685.0026894,"caller":"app/repeat.go:35","msg":"mj aXyOmmIf SFZICrYljze jyfusxDRolgwxY IxxFZcyTXHQiGO OjNbUgca ztqxgrD lmkUNF rOGSqJlMm izgNEVOS sVGTlsDp"}
2022-06-07T07:24:45.003879419Z stderr F {"level":"info","ts":1654586685.0027046,"caller":"app/repeat.go:35","msg":"Xmq xOFjasrn dCWKrhOUklOn mjyicYZ VYxTVEdCV IzilkAWwwcxSP mPgPmVDdI hcbZH tfBnU ctmSycCqDxU zkaRlbQc jSOnDddvzSxRk"}
2022-06-07T07:24:45.003883488Z stderr F {"level":"warn","ts":1654586685.0027163,"caller":"app/repeat.go:33","msg":" WrZMeihuuuB ZgfjpYhXGL BbIUtXSxdgK CbzUIGGOwlV bUfGq iqKAymiW InYdIaCLaEL VrFmRBjqCiibs QglFtpRpZBvUM CgSrFjA"}
2022-06-07T07:24:45.003887805Z stderr F {"level":"warn","ts":1654586685.0027251,"caller":"app/repeat.go:33","msg":"jyqE FORYxGzbGnMU SXSxupfGg OJECFYLMxpi Utdcdi xNjEKTT IhSIrymEZun HVrEQAaTTT"}
2022-06-07T07:24:45.003893936Z stderr F {"level":"warn","ts":1654586685.0027351,"caller":"app/repeat.go:33","msg":"mnp kMsrHk nrracrXVvEmFXi mxPSEmErnoVPQU EcFOqO fFTzlAuyAujO pDdEFNuIAaAs rAYAuRNuglEA wsDMJnGuT LCqTS"}
2022-06-07T07:24:45.003900131Z stderr F {"level":"info","ts":1654586685.0027473,"caller":"app/repeat.go:35","msg":"fq zpsmz gRuZTskVivX VYHwRxHVL SMqVRmLf bXyONamUsYeTVI JLLcsLfuLkEal oSvocXx GeImCBL fZibTIaElr"}
2022-06-07T07:24:45.003922247Z stderr F {"level":"warn","ts":1654586685.002752,"caller":"app/repeat.go:33","msg":""}
2022-06-07T07:24:45.00392801Z stderr F {"level":"info","ts":1654586685.0027785,"caller":"app/repeat.go:35","msg":"vqT hIDzPIf NtbVW WimprOH"}
2022-06-07T07:24:45.003933385Z stderr F {"level":"error","ts":1654586685.0027916,"caller":"app/repeat.go:31","msg":"RfR nreWusPlF rOOLF lGmFjtGVL KslJIjRwWj SpwqQYKDOJ","stacktrace":"main.printLog\n\t/go/src/app/repeat.go:31\nmain.Repeat\n\t/go/src/app/repeat.go:55\nmain.main\n\t/go/src/app/repeat.go:74\nruntime.main\n\t/usr/local/go/src/runtime/proc.go:250"}
2022-06-07T07:24:45.003939702Z stderr F {"level":"info","ts":1654586685.0028174,"caller":"app/repeat.go:35","msg":"tsqZnBp QTXCjTsD KpcAbCtsNXao kiNkLCtgu wNBmFPIseNTDh Qxiwvsv LGAIniMlzzI aMNhOLBiwVE rIovAOeaMGFIC GuXcIeF"}
2022-06-07T07:24:45.003944805Z stderr F {"level":"info","ts":1654586685.0028284,"caller":"app/repeat.go:35","msg":"FjQQeQ iKzKGJWMepyxTv VwnLZPwrp kvuhGHumI IjxgWSXuTItzX"}
2022-06-07T07:24:45.003966207Z stderr F {"level":"error","ts":1654586685.002839,"caller":"app/repeat.go:31","msg":"GtG dmwHeUlvGouvmV hwDVYpjVyz","stacktrace":"main.printLog\n\t/go/src/app/repeat.go:31\nmain.Repeat\n\t/go/src/app/repeat.go:55\nmain.main\n\t/go/src/app/repeat.go:74\nruntime.main\n\t/usr/local/go/src/runtime/proc.go:250"}
2022-06-07T07:24:45.003972346Z stderr F {"level":"error","ts":1654586685.0028517,"caller":"app/repeat.go:31","msg":"FQckpXUJp eCmYLFUsMOfZR OTUkKqthnfc wELmTwbUJMKImN WQrhXqVAce","stacktrace":"main.printLog\n\t/go/src/app/repeat.go:31\nmain.Repeat\n\t/go/src/app/repeat.go:55\nmain.main\n\t/go/src/app/repeat.go:74\nruntime.main\n\t/usr/local/go/src/runtime/proc.go:250"}
2022-06-07T07:24:45.003979289Z stderr F {"level":"warn","ts":1654586685.002861,"caller":"app/repeat.go:33","msg":"yOd NYcSFCqPMREfg"}
2022-06-07T07:24:45.003985571Z stderr F {"level":"info","ts":1654586685.0028672,"caller":"app/repeat.go:35","msg":"tPyzeMp cPwIEmJwo KzTfJybLLnZ ABDHbzRFqorfYn"}
2022-06-07T07:24:45.003991108Z stderr F {"level":"warn","ts":1654586685.0028722,"caller":"app/repeat.go:33","msg":" XWvBQMczkuNaKQ lxsng"}
2022-06-07T07:24:45.003997012Z stderr F {"level":"info","ts":1654586685.0028782,"caller":"app/repeat.go:35","msg":" ohdfH OmtpZwMzS LbUeTmIRvbf OnOUZVftrSlbF"}
2022-06-07T07:24:45.004002581Z stderr F {"level":"info","ts":1654586685.0028841,"caller":"app/repeat.go:35","msg":"cgChEl VEUttOhPSL FAIvGfhWyDYgWn TTHAIh"}
2022-06-07T07:24:45.004007961Z stderr F {"level":"warn","ts":1654586685.0028887,"caller":"app/repeat.go:33","msg":"MdJpb ixpTLX"}
2022-06-07T07:24:45.004014119Z stderr F {"level":"info","ts":1654586685.0028958,"caller":"app/repeat.go:35","msg":" xECxtfFfor GqCNsqrNwQqKFF GCXOhkDfmXe FPhtvh pvnZXRSK xPxTOW"}
2022-06-07T07:24:45.004022734Z stderr F {"level":"info","ts":1654586685.002906,"caller":"app/repeat.go:35","msg":"ctrC SDXdqPoVwtuCLj xkHaLZPHAYfH fapus nZkIsl qfXbDHyoQBB zvUsMxz jAZcbLnNS gpRbHwCc HTXMynixTVhLPw PdVmdiLWUWaiP tuaPjpc"}
2022-06-07T07:24:45.004028045Z stderr F {"level":"info","ts":1654586685.0029113,"caller":"app/repeat.go:35","msg":"bj cYmLWzIsR"}
2022-06-07T07:24:45.004033655Z stderr F {"level":"info","ts":1654586685.0029206,"caller":"app/repeat.go:35","msg":"LfVsPOjrq NtTbmRXoD tfACccCD wNoHiGYNxOPh kCIYOKM lzJDwrq"}
2022-06-07T07:24:45.004041842Z stderr F {"level":"error","ts":1654586685.0029273,"caller":"app/repeat.go:31","msg":"sbn bKRKXjZrZlzBK XOHrcTmbEE OdtKSz iaYJCujKzBotIh","stacktrace":"main.printLog\n\t/go/src/app/repeat.go:31\nmain.Repeat\n\t/go/src/app/repeat.go:55\nmain.main\n\t/go/src/app/repeat.go:74\nruntime.main\n\t/usr/local/go/src/runtime/proc.go:250"}
2022-06-07T07:24:45.004047209Z stderr F {"level":"warn","ts":1654586685.0029368,"caller":"app/repeat.go:33","msg":"IWgcx xJRvPfnI wVwtlhypEYNmN"}
2022-06-07T07:24:45.004052272Z stderr F {"level":"info","ts":1654586685.002944,"caller":"app/repeat.go:35","msg":"FKmO dhCnOW bLSYtJDkery mPiOdnAwEPmr jRKcHdlUluw dZSNGWyGiB"}
2022-06-07T07:24:45.004057558Z stderr F {"level":"info","ts":1654586685.0029483,"caller":"app/repeat.go:35","msg":""}
2022-06-07T07:24:45.004067101Z stderr F {"level":"info","ts":1654586685.0029554,"caller":"app/repeat.go:35","msg":"uLxB rbgYQLkkNbPQc NfwkSS oikplwXwn NXBgo HtLRGkcSvvMhrh dQWbdOKUQ"}
2022-06-07T07:24:45.004072501Z stderr F {"level":"error","ts":1654586685.002961,"caller":"app/repeat.go:31","msg":"VrmGLa UywMIYJUBIgvgQ FPajtdw","stacktrace":"main.printLog\n\t/go/src/app/repeat.go:31\nmain.Repeat\n\t/go/src/app/repeat.go:55\nmain.main\n\t/go/src/app/repeat.go:74\nruntime.main\n\t/usr/local/go/src/runtime/proc.go:250"}
2022-06-07T07:24:45.004078248Z stderr F {"level":"info","ts":1654586685.0029778,"caller":"app/repeat.go:35","msg":"wULZh UUyrYNhhG JAfkxSNpYNyAM TThdIdBv pipSWcIMZu XNFVHaOMyCTKF MMITlzaBccxH"}
2022-06-07T07:24:45.004084025Z stderr F {"level":"info","ts":1654586685.0029898,"caller":"app/repeat.go:35","msg":"FMj BjRhX xJyMeeDkLDcTfD"}
2022-06-07T07:24:45.004089668Z stderr F {"level":"info","ts":1654586685.0029953,"caller":"app/repeat.go:35","msg":"tjYH RNSeIG piNRHo PGZjqWW"}
2022-06-07T07:24:45.004095272Z stderr F {"level":"info","ts":1654586685.0029995,"caller":"app/repeat.go:35","msg":"tlqZkuhU"}
2022-06-07T07:24:45.00410045Z stderr F {"level":"info","ts":1654586685.0030048,"caller":"app/repeat.go:35","msg":"UBLbZxs YnwOfcipxkO AdHDYzfhtfMgNa"}
2022-06-07T07:24:45.004106078Z stderr F {"level":"info","ts":1654586685.0030093,"caller":"app/repeat.go:35","msg":"rNzYKA TEHwgYXGWN"}
2022-06-07T07:24:45.004117368Z stderr F {"level":"warn","ts":1654586685.003018,"caller":"app/repeat.go:33","msg":"yPivCRq GPiVWBEqrchi NLiTQYPoT tPoOidh CvUtcXlD IKqiaGsyzOmkEe bKSPiXFbkt RDPCGAa hrmpb qWZzbFzmGclIfs"}
2022-06-07T07:24:45.004122821Z stderr F {"level":"info","ts":1654586685.0030248,"caller":"app/repeat.go:35","msg":"zd MPhlMucFqYbgjl DQyLeCTDBsL XuMCWXOMRwX rwDaCIzLAK"}
2022-06-07T07:24:45.004128673Z stderr F {"level":"info","ts":1654586685.0030313,"caller":"app/repeat.go:35","msg":"qDSsiAaOk EGYlcFkTySQF RoAHkQpo Vffwd afEFUZNVRZQQx"}
2022-06-07T07:24:45.004142355Z stderr F {"level":"info","ts":1654586685.0030434,"caller":"app/repeat.go:35","msg":" uQYIdPOIwk iLfOfd ELDTEqnGAFJrE muaxCjTEf vfYrOlgtTGwpu hhPAZ FCWRjymEPESo cbthjb"}
2022-06-07T07:24:45.004148799Z stderr F {"level":"info","ts":1654586685.003049,"caller":"app/repeat.go:35","msg":"GChZACL IBjHh"}
2022-06-07T07:24:45.004154129Z stderr F {"level":"info","ts":1654586685.0030544,"caller":"app/repeat.go:35","msg":"Q ViHYJQ qrRKKwug"}
2022-06-07T07:24:45.004159612Z stderr F {"level":"info","ts":1654586685.0030613,"caller":"app/repeat.go:35","msg":"ZlnnOztas KCFcZYsaI RnfnJdjcJ ZWAPSC sislAYtRCnrsT ZJHaYQeRvV"}
2022-06-07T07:24:45.004188479Z stderr F {"level":"error","ts":1654586685.003069,"caller":"app/repeat.go:31","msg":"SGEvvzm zeIMRGi iRpOorjkivXqP XvTkRszkMFQe rlHyPt qKDrmBez DmWalyr","stacktrace":"main.printLog\n\t/go/src/app/repeat.go:31\nmain.Repeat\n\t/go/src/app/repeat.go:55\nmain.main\n\t/go/src/app/repeat.go:74\nruntime.main\n\t/usr/local/go/src/runtime/proc.go:250"}
2022-06-07T07:24:45.004193996Z stderr F {"level":"info","ts":1654586685.0030808,"caller":"app/repeat.go:35","msg":"yW eiMftjDZTSG qhuTDcxmLKTm VZkiBUDsCp SXvyKpNzfJ hhREJxeRgj fkFlokssr kqIBC"}
2022-06-07T07:24:45.004199114Z stderr F {"level":"info","ts":1654586685.0030866,"caller":"app/repeat.go:35","msg":"Wg EkgzIa XECBsfvhWu nqCxNuk"}
2022-06-07T07:24:45.004204232Z stderr F {"level":"info","ts":1654586685.0030932,"caller":"app/repeat.go:35","msg":"ZGeLHp dOcglSSjpIkN lhWvMdiNk pAalL RupinVyQas KWaEubVl"}
2022-06-07T07:24:45.00420932Z stderr F {"level":"warn","ts":1654586685.0030975,"caller":"app/repeat.go:33","msg":"nAFMHngA"}
2022-06-07T07:24:45.004214711Z stderr F {"level":"warn","ts":1654586685.00311,"caller":"app/repeat.go:33","msg":"WPpx GxaAzpFnN CuZrdcyEgwDW boRRkojY IRlRoaVhWusiET uLeZv HPsdcgrgcWYbFL"}
2022-06-07T07:24:45.004219879Z stderr F {"level":"warn","ts":1654586685.0031154,"caller":"app/repeat.go:33","msg":"TPn wfHEEbt zdCvMVkliD"}
2022-06-07T07:24:45.004225173Z stderr F {"level":"warn","ts":1654586685.0031447,"caller":"app/repeat.go:33","msg":""}
2022-06-07T07:24:45.004235821Z stderr F {"level":"info","ts":1654586685.0031621,"caller":"app/repeat.go:35","msg":"ojTZ OFAYtX VmEkS qIQPA RVsqO"}
2022-06-07T07:24:45.004239668Z stderr F {"level":"info","ts":1654586685.0031686,"caller":"app/repeat.go:35","msg":"HsuYVG zAvtnPgzq NPxoCKXJnu ILuXlKfUA belsiD pSUNm"}
2022-06-07T07:24:45.004245114Z stderr F {"level":"info","ts":1654586685.0031738,"caller":"app/repeat.go:35","msg":"g TAAuTGOGnEDRFn exGux"}
2022-06-07T07:24:45.004250579Z stderr F {"level":"info","ts":1654586685.003181,"caller":"app/repeat.go:35","msg":"xAdOxJecy WPmYtDnzTDBPk dyDhAyCTUYlz bnQJaJJrifHe hOBHLOOZT NjHyR"}
2022-06-07T07:24:45.004256996Z stderr F {"level":"info","ts":1654586685.0031865,"caller":"app/repeat.go:35","msg":"FJtFgd BKQEIQnOA phQAdUlQWWSR"}
2022-06-07T07:24:45.004262331Z stderr F {"level":"info","ts":1654586685.0031912,"caller":"app/repeat.go:35","msg":"BkyBstjz PyhXkjrXcgluB"}
2022-06-07T07:24:45.004267879Z stderr F {"level":"info","ts":1654586685.0031962,"caller":"app/repeat.go:35","msg":"Pr hHtiPWF LgDFaOXc"}
2022-06-07T07:24:45.004273166Z stderr F {"level":"warn","ts":1654586685.0032022,"caller":"app/repeat.go:33","msg":"aieooGdT rGtqjQPlbnR oVQQlxmEoLEewz OundjJldNtVZ"}
2022-06-07T07:24:45.004278278Z stderr F {"level":"info","ts":1654586685.0032096,"caller":"app/repeat.go:35","msg":"ghXvYyYYb FEfdpAxZqDqEI gJwfkTURa refold YjbOJ MxpLCcMJCPfZ albjbaLc"}
2022-06-07T07:24:45.004283546Z stderr F {"level":"warn","ts":1654586685.0032158,"caller":"app/repeat.go:33","msg":"NQFMLI hIuzXfNFkkL pomZPIlvRsvHC lNBwtJWW ptoOzul"}
2022-06-07T07:24:45.004288716Z stderr F {"level":"warn","ts":1654586685.003278,"caller":"app/repeat.go:33","msg":"ur MGbIK LXBmMaVnmhrp rDLOCLPiU JtyduuzePwI TLBXCBKrtH AtGbIUxegEJnUR DdKKTu vGGzBVFajAGJ tRhxnAO ncmSKCmxTKROJ lhfvqF"}
2022-06-07T07:24:45.004293966Z stderr F {"level":"info","ts":1654586685.0033078,"caller":"app/repeat.go:35","msg":"QBd FIJDUNFRyBLrv"}
2022-06-07T07:24:45.004299294Z stderr F {"level":"warn","ts":1654586685.0033154,"caller":"app/repeat.go:33","msg":"FhSXJgAY BZIWkqREqP coHnxljBhg CLddguzhS"}
2022-06-07T07:24:45.004304725Z stderr F {"level":"warn","ts":1654586685.0033226,"caller":"app/repeat.go:33","msg":"IsUPW vNwRovknZbO MpQTTnLttrsZd UCKyBiNc RLyhaMVXJXFi"}
2022-06-07T07:24:45.004309985Z stderr F {"level":"error","ts":1654586685.0033278,"caller":"app/repeat.go:31","msg":"uq ovrezeRxm","stacktrace":"main.printLog\n\t/go/src/app/repeat.go:31\nmain.Repeat\n\t/go/src/app/repeat.go:55\nmain.main\n\t/go/src/app/repeat.go:74\nruntime.main\n\t/usr/local/go/src/runtime/proc.go:250"}
2022-06-07T07:24:45.004318342Z stderr F {"level":"error","ts":1654586685.0033576,"caller":"app/repeat.go:31","msg":"SXLZ LobmMMlaFutV RxgRrkYT ZEPLUmijczqkWM XIbcRPFZBb EkxlLczEh","stacktrace":"main.printLog\n\t/go/src/app/repeat.go:31\nmain.Repeat\n\t/go/src/app/repeat.go:55\nmain.main\n\t/go/src/app/repeat.go:74\nruntime.main\n\t/usr/local/go/src/runtime/proc.go:250"}
2022-06-07T07:24:45.004341639Z stderr F {"level":"info","ts":1654586685.0033717,"caller":"app/repeat.go:35","msg":"AnYNOtRlA yEymdmTReTC TAKttARYZOeA LFwUMcBVlRxTQD maPAgyMhg nNQEJmHZHdMz WEIajVCMUpJZq MDUtumGAD NCKroYjA"}
2022-06-07T07:24:45.004348024Z stderr F {"level":"info","ts":1654586685.0033805,"caller":"app/repeat.go:35","msg":"BIPPFeV roUlCzwt MWueHPRfHGpbn"}
2022-06-07T07:24:45.004353829Z stderr F {"level":"warn","ts":1654586685.0033882,"caller":"app/repeat.go:33","msg":"xVzJ rfPPiMDuHu qzhtuYrEcFla xiGJIaKOtu zqTGnVySFTGovc KNRTTWfTy"}
2022-06-07T07:24:45.004359587Z stderr F {"level":"info","ts":1654586685.0033982,"caller":"app/repeat.go:35","msg":"DK jalvenNBGF mBxKGMtHvlTT MeVzVOAqCgqpwP PzGllkzB"}
2022-06-07T07:24:45.0043649Z stderr F {"level":"info","ts":1654586685.003406,"caller":"app/repeat.go:35","msg":"apwE ifjzHuP CjVket OadDditvFqz gmPFyiSqWHs ngmdY ZukTTptgEq UgdCRM"}
2022-06-07T07:24:45.0043703Z stderr F {"level":"info","ts":1654586685.0034115,"caller":"app/repeat.go:35","msg":"B ukdJpZ ZdGwayMgRAjmC"}
2022-06-07T07:24:45.004375593Z stderr F {"level":"info","ts":1654586685.0034199,"caller":"app/repeat.go:35","msg":"mMGGVSQ pUxootvewguj wPIMcSVsKObmnV miwyUXNIyug tYWEcTBJIcciBg pJFGhaUbMIdk CCxGRaeSJIFx xrNsfGehn"}
2022-06-07T07:24:45.004386323Z stderr F {"level":"info","ts":1654586685.0034332,"caller":"app/repeat.go:35","msg":"yojn WYnLYZQPEn TiiyJkNwPjbi QGiXCA XDyUhhtA mlwnZWONE VlFughRyAmiQ nIBjeqCKz QAPTgUPUBle"}
2022-06-07T07:24:45.004391962Z stderr F {"level":"info","ts":1654586685.0034378,"caller":"app/repeat.go:35","msg":"ignYcV"}
2022-06-07T07:24:45.004397302Z stderr F {"level":"error","ts":1654586685.0034444,"caller":"app/repeat.go:31","msg":" PcQLx KAnncwv ZAgLpXlR TWHpfEYLJAL DUhLdKCEfK","stacktrace":"main.printLog\n\t/go/src/app/repeat.go:31\nmain.Repeat\n\t/go/src/app/repeat.go:55\nmain.main\n\t/go/src/app/repeat.go:74\nruntime.main\n\t/usr/local/go/src/runtime/proc.go:250"}
2022-06-07T07:24:45.00440547Z stderr F {"level":"info","ts":1654586685.0034552,"caller":"app/repeat.go:35","msg":"W RIXiuGxTNjEuU SPmdwKVdvWNevt PMiQIDjxKolE"}
2022-06-07T07:24:45.004410868Z stderr F {"level":"warn","ts":1654586685.0034647,"caller":"app/repeat.go:33","msg":" UfyWbZsEEvz DfcGRUfy cNhtCf lpyGTUpXj AKegtbE SGaizrDffeB QSFIztS AHFGZlq vVTzQmQM afeYCvzgtWU"}
2022-06-07T07:24:45.004416027Z stderr F {"level":"info","ts":1654586685.003473,"caller":"app/repeat.go:35","msg":"Jyhplwz kjBkDuwXW dwmntNKGakiO PNyAyCv UOIMvAKjnOXHEB mcPgCEBZX amDkZ"}
2022-06-07T07:24:45.004421204Z stderr F {"level":"info","ts":1654586685.0034807,"caller":"app/repeat.go:35","msg":"uGhklVq iqBvIC YXixAr LnfqWkXSlyAxY VpRRcQvD hBXUiYMJBZ"}
2022-06-07T07:24:45.00442622Z stderr F {"level":"info","ts":1654586685.0034933,"caller":"app/repeat.go:35","msg":"yx JzkJFdY xAuAuENToqh UgMEvcBtIBYmaR BmKcOcicbvoA TFbAC XJmVySu ipAFjGrYjtRrqg wKMRem WBhClOKfB UbCazmo rqLYjc"}
2022-06-07T07:24:45.004430888Z stderr F {"level":"info","ts":1654586685.0035002,"caller":"app/repeat.go:35","msg":"IyPfks ChGAPFxvr krunILLGZuzAUp hxPesUzmKKmZMj"}
2022-06-07T07:24:45.00443599Z stderr F {"level":"warn","ts":1654586685.0035057,"caller":"app/repeat.go:33","msg":"KfDJ qTCFJBFxuY ptpvMjXqB"}
2022-06-07T07:24:45.004444925Z stderr F {"level":"info","ts":1654586685.003512,"caller":"app/repeat.go:35","msg":"AyZqN KwDNXOJrekLIcc LVhYyh IQoLzzmtFe zNnZBNs"}
2022-06-07T07:24:45.004450996Z stderr F {"level":"info","ts":1654586685.003519,"caller":"app/repeat.go:35","msg":"TAmuT ygXZeDxzz xvAmTR NFAyIn GWLUxikxJZhmd VLFJy GTbHsriYqAMd"}
2022-06-07T07:25:45.029726337Z stderr F {"level":"warn","ts":1654586745.0295653,"caller":"app/repeat.go:33","msg":"ykZtHwZSq pkUqfKjUFbO FkTYreeiI gIsrDqqPvNoVYk PFOWjjcidXQ uxhFjRImEro NxGZdvbxK bUjkZxtC oisUjGXn QyVgK BHvmYlfqQmSoD abZJNBqYkAu nAKlyOwVyOZ"}
2022-06-07T07:25:45.029883354Z stderr F {"level":"info","ts":1654586745.0298178,"caller":"app/repeat.go:35","msg":"I nzpTQUciPtYINu yYQpTfJNLIcK zukBbcTTUzO KmuHF"}
2022-06-07T07:25:45.029964014Z stderr F {"level":"info","ts":1654586745.0299246,"caller":"app/repeat.go:35","msg":"Iszj ndSEDJDXPSSOra nqyCFYKCb jSVmgXADccYpCo gpLaKWMJKro DbNRHPves xnuCmKl Ythtv ZHYkVP HbDuderilxPh"}
2022-06-07T07:25:45.030050607Z stderr F {"level":"info","ts":1654586745.0299952,"caller":"app/repeat.go:35","msg":"RXHQsyJmY tKkmKH NhGAkYFxP iuVlteGN tjKjMGVddewcnR ZMUDQhm qVcjReRoaoRR cPJkDamSgsbkU"}
2022-06-07T07:25:45.0300713Z stderr F {"level":"warn","ts":1654586745.0300193,"caller":"app/repeat.go:33","msg":"lEIIsLhzm ehSDCBLCP AlTMUyiOI vQfkPxW DHTKy vCMLLudh LLipalNhUry zbXUca vEgZWdjaYmG"}
2022-06-07T07:25:45.030231526Z stderr F {"level":"info","ts":1654586745.030088,"caller":"app/repeat.go:35","msg":"GeJ UTuzzeFW ofCsMHb wMiheMTNph"}
2022-06-07T07:25:45.030245316Z stderr F {"level":"info","ts":1654586745.0301085,"caller":"app/repeat.go:35","msg":"RIQfFQ lImLCZRrJHivA oweJuVz vGdvZPWSJibqG LQQrkAwR qRVMhUF GAXsuuyfcNKqY"}
2022-06-07T07:25:45.030254426Z stderr F {"level":"warn","ts":1654586745.0301344,"caller":"app/repeat.go:33","msg":"lRjgPxnvu EnwvBUEj nIupkxbgc lOCKqGkWOpgBO YhTdS"}
2022-06-07T07:25:45.030289205Z stderr F {"level":"info","ts":1654586745.0301435,"caller":"app/repeat.go:35","msg":"QwBGvI HuFqmmoaG"}
2022-06-07T07:25:45.030312855Z stderr F {"level":"info","ts":1654586745.0301542,"caller":"app/repeat.go:35","msg":"K LXjyuUllQhS masFeYVNMilSN yuBHqPcmFDBS"}
2022-06-07T07:25:45.030340718Z stderr F {"level":"error","ts":1654586745.030224,"caller":"app/repeat.go:31","msg":"vcz EtgaJU pDpzBJmaihnYJk SweGYuD","stacktrace":"main.printLog\n\t/go/src/app/repeat.go:31\nmain.Repeat\n\t/go/src/app/repeat.go:55\nmain.main\n\t/go/src/app/repeat.go:74\nruntime.main\n\t/usr/local/go/src/runtime/proc.go:250"}
2022-06-07T07:25:45.030367788Z stderr F {"level":"info","ts":1654586745.0302866,"caller":"app/repeat.go:35","msg":" BLjUXSNPggmi qGPxXeM NCsxgcYUdLyuf GbfuOKUIaYM GOgjK"}
2022-06-07T07:25:45.030497718Z stderr F {"level":"warn","ts":1654586745.0303957,"caller":"app/repeat.go:33","msg":" INCWeSZ LRpVzjxt XMIjuO yzBdXO fzrjOaUMYBYXF GVoHYYar TOQZsFY ULFshF BqvgeVCAHv"}
2022-06-07T07:25:45.030507162Z stderr F {"level":"info","ts":1654586745.0304143,"caller":"app/repeat.go:35","msg":"a tMWbFkdbao hEyCGEVFXBclw pPpZwruMZP"}
2022-06-07T07:25:45.030547312Z stderr F {"level":"info","ts":1654586745.0304248,"caller":"app/repeat.go:35","msg":"iHrH KKDxurWdoDpYEJ TQdnkScwsz NtlIGGKjdpc"}
2022-06-07T07:25:45.030555916Z stderr F {"level":"error","ts":1654586745.0304425,"caller":"app/repeat.go:31","msg":"cn hSDPmDmtkzSw TjfnZVkkryHdeU qHqfTeIAUr NUrJrwKiYRbTad DMXpioDYxmAp","stacktrace":"main.printLog\n\t/go/src/app/repeat.go:31\nmain.Repeat\n\t/go/src/app/repeat.go:55\nmain.main\n\t/go/src/app/repeat.go:74\nruntime.main\n\t/usr/local/go/src/runtime/proc.go:250"}
2022-06-07T07:25:45.030568621Z stderr F {"level":"error","ts":1654586745.0304773,"caller":"app/repeat.go:31","msg":"a gjmwo","stacktrace":"main.printLog\n\t/go/src/app/repeat.go:31\nmain.Repeat\n\t/go/src/app/repeat.go:55\nmain.main\n\t/go/src/app/repeat.go:74\nruntime.main\n\t/usr/local/go/src/runtime/proc.go:250"}
2022-06-07T07:25:45.030576572Z stderr F {"level":"info","ts":1654586745.0305204,"caller":"app/repeat.go:35","msg":"DeFi HeDqd nkcecLVQPYH FKGkzgstLNUdrf SDowLr EqnSk"}
2022-06-07T07:25:45.030591335Z stderr F {"level":"warn","ts":1654586745.0305562,"caller":"app/repeat.go:33","msg":"F OkSjjZENgpVMf INANCsIMr uHNMusviXxLf CDaYyVb wZnOagY tImsVZbvP"}
2022-06-07T07:25:45.030641585Z stderr F {"level":"warn","ts":1654586745.0305803,"caller":"app/repeat.go:33","msg":"G"}
2022-06-07T07:25:45.030673073Z stderr F {"level":"error","ts":1654586745.030608,"caller":"app/repeat.go:31","msg":"mkQ toIspreifyNFM VBthIZ ULfoLhEej GQxktxxtu EvNFBfBzXB","stacktrace":"main.printLog\n\t/go/src/app/repeat.go:31\nmain.Repeat\n\t/go/src/app/repeat.go:55\nmain.main\n\t/go/src/app/repeat.go:74\nruntime.main\n\t/usr/local/go/src/runtime/proc.go:250"}
2022-06-07T07:25:45.030730649Z stderr F {"level":"warn","ts":1654586745.0306764,"caller":"app/repeat.go:33","msg":"V VUoVCAZospquW HJhxWPbvoA EDypo HRNkA"}
2022-06-07T07:25:45.030750471Z stderr F {"level":"info","ts":1654586745.0307128,"caller":"app/repeat.go:35","msg":"gFiEM vapHI lxwyFNl iqEnkzlmpl csYAis tYNiebCF ofsNx yPWUiRhdnk ahWtbEouEoBtS MOrBU"}
2022-06-07T07:25:45.030788592Z stderr F {"level":"info","ts":1654586745.0307422,"caller":"app/repeat.go:35","msg":"uog iUHjFy BWaMLCRUe CPrRwK bDFIc"}
2022-06-07T07:25:45.03084607Z stderr F {"level":"error","ts":1654586745.030796,"caller":"app/repeat.go:31","msg":"bsqPVXWvG vWusimlHzwjhV hDudYPiLqnfM yKdIB ovgWcJAXxaRfrJ hHOqVuOvVsqB RBSUNE YWlzSVQdd emVhnFYk","stacktrace":"main.printLog\n\t/go/src/app/repeat.go:31\nmain.Repeat\n\t/go/src/app/repeat.go:55\nmain.main\n\t/go/src/app/repeat.go:74\nruntime.main\n\t/usr/local/go/src/runtime/proc.go:250"}
2022-06-07T07:25:45.030861631Z stderr F {"level":"info","ts":1654586745.0308352,"caller":"app/repeat.go:35","msg":"J NOVucs lytUVzdFDDiT WwlGyqpul"}
2022-06-07T07:25:45.030940223Z stderr F {"level":"info","ts":1654586745.0308716,"caller":"app/repeat.go:35","msg":"ZCuSYUPb VScuA ogDLuJf RuHUo zaSycyIcdXqbg BdyXCgUQBs UafUGxZgiU OOgNbbcuRaEn"}
2022-06-07T07:25:45.030949823Z stderr F {"level":"info","ts":1654586745.0308893,"caller":"app/repeat.go:35","msg":"k dpROaAQ kDpEkVedBan LiCsArFp iWNhy pOEJphcMUMaTa"}
2022-06-07T07:25:45.030963607Z stderr F {"level":"info","ts":1654586745.0308995,"caller":"app/repeat.go:35","msg":"jCtU hzXjxzgj sbQCIGr SzEiKSJ HChNdB"}
2022-06-07T07:25:45.0309808Z stderr F {"level":"warn","ts":1654586745.030923,"caller":"app/repeat.go:33","msg":"sHoxjxiMU XDqZnvQdvOTq VnSuhtDdQvu Afzezcsq QqhlJ kbEGZVGajlN NFoyQWjFGxlKY zjFFAu qABPsyn PGsGfZpBXIu QDXnHo MCqgH"}
2022-06-07T07:25:45.030989169Z stderr F {"level":"info","ts":1654586745.0309527,"caller":"app/repeat.go:35","msg":"q mVskaf XJdvm AUWfHsXIqk"}
2022-06-07T07:25:45.031012919Z stderr F {"level":"info","ts":1654586745.0309823,"caller":"app/repeat.go:35","msg":"Ym KwQPMtOq qgIsRiTrk"}
2022-06-07T07:25:45.031047503Z stderr F {"level":"warn","ts":1654586745.0310073,"caller":"app/repeat.go:33","msg":"ZlmZKRxo zLTfR zZCFmMAYtEZmKF CjbYHTb oJLwqaEq LvhWpsC"}
2022-06-07T07:25:45.031089466Z stderr F {"level":"info","ts":1654586745.0310512,"caller":"app/repeat.go:35","msg":"sb EBLofKMOjCFAT PiJlZgB PzOdKtGMQto NZRjYUMMFRVV OiDGgHC SJOYpYYpJW TiCamZE bYlaMVtYFdIn"}
2022-06-07T07:25:45.031145297Z stderr F {"level":"info","ts":1654586745.0310907,"caller":"app/repeat.go:35","msg":"V tdbXHPqofzT jYrTwnrWjmNhOe oSTZtzE SawlDlylDIn"}
2022-06-07T07:25:45.031163317Z stderr F {"level":"warn","ts":1654586745.0311165,"caller":"app/repeat.go:33","msg":"GlexRHl aOdpEOpr OFeJAPZHGYsa bRCBMYzcOrQzD"}
2022-06-07T07:25:45.031231376Z stderr F {"level":"info","ts":1654586745.03115,"caller":"app/repeat.go:35","msg":"jTMIsLAcp nzEUYC vlMIrSQz RvFRDIW DUSSO yvnMTXrYrNKu"}
2022-06-07T07:25:45.031248904Z stderr F {"level":"info","ts":1654586745.0312033,"caller":"app/repeat.go:35","msg":"L gnXLUdWmHZkcM YaWLUgty nThBhhgr daUtvsjfu"}
2022-06-07T07:25:45.031260242Z stderr F {"level":"warn","ts":1654586745.0312343,"caller":"app/repeat.go:33","msg":"mraMTOVHN fcMwsAgzJsQ"}
2022-06-07T07:25:45.031362395Z stderr F {"level":"info","ts":1654586745.0312674,"caller":"app/repeat.go:35","msg":"pSK aVOQSzPfKaEg mSTpM JUYvt uxXsLIZoBfS pLhDed SHfVJsO"}
2022-06-07T07:25:45.031370576Z stderr F {"level":"info","ts":1654586745.0312824,"caller":"app/repeat.go:35","msg":"Cpc qdmQZhEDDRC NNvbpZjmz"}
2022-06-07T07:25:45.031376197Z stderr F {"level":"info","ts":1654586745.0312922,"caller":"app/repeat.go:35","msg":"RRwkOyE PyyksLd bqOaeOLXf aHAbbwKj"}
2022-06-07T07:25:45.031382132Z stderr F {"level":"info","ts":1654586745.0313003,"caller":"app/repeat.go:35","msg":" wKyxevx lyKZDvWJTVKl"}
2022-06-07T07:25:45.031387757Z stderr F {"level":"info","ts":1654586745.0313103,"caller":"app/repeat.go:35","msg":" VOMUHrSdy TPPNIOopOqlIl mnMjo"}
2022-06-07T07:25:45.031403239Z stderr F {"level":"warn","ts":1654586745.0313628,"caller":"app/repeat.go:33","msg":"IVCRt nwNFhaHJbb hZnQsoY VPTHTDHBKqu PbxFVhMQ VBbMKMrbX fcMkMncIsZLuCt EYfQoKYtaCIk orzRVusheg ETbgeqI HmAimv sukjlPSmcSARH"}
2022-06-07T07:25:45.03144932Z stderr F {"level":"warn","ts":1654586745.0313907,"caller":"app/repeat.go:33","msg":" OAdPUoGyiIYei haWKFZp IAOpKsEgVogJJ"}
2022-06-07T07:25:45.031461235Z stderr F {"level":"info","ts":1654586745.0314176,"caller":"app/repeat.go:35","msg":"aFPMSRERZ kkYUHjgsLdq BqRDKxaxK nwJHiVmlT PZcKqrorZ"}
2022-06-07T07:25:45.031477846Z stderr F {"level":"info","ts":1654586745.031449,"caller":"app/repeat.go:35","msg":"VG cLYWiS mugqXRoiqCg"}
2022-06-07T07:25:45.031555189Z stderr F {"level":"info","ts":1654586745.0314875,"caller":"app/repeat.go:35","msg":"GuMMOYFX hGebn ihnjwMbXBiVyJ NECGcQMRU BOUQZrYm qxKJzofKku JdfnUmzJNvLuAB"}
2022-06-07T07:25:45.031568587Z stderr F {"level":"info","ts":1654586745.0315204,"caller":"app/repeat.go:35","msg":"jGMss EqqpHlQ hhbFizaA JpkMJjAoWRjKr UgBwIM fPFQPdpECBadC"}
2022-06-07T07:25:45.031584044Z stderr F {"level":"info","ts":1654586745.0315523,"caller":"app/repeat.go:35","msg":"z lcVwkXRbhpjS QLmzyuhwCb"}
2022-06-07T07:25:45.031690728Z stderr F {"level":"error","ts":1654586745.0315874,"caller":"app/repeat.go:31","msg":"gLR ndDWjFFeKk gSYCPGJwteNf ApEWrsUYPbA lyvQCck BAppDOK TibLQpCpukgoS JADKXOXZfX","stacktrace":"main.printLog\n\t/go/src/app/repeat.go:31\nmain.Repeat\n\t/go/src/app/repeat.go:55\nmain.main\n\t/go/src/app/repeat.go:74\nruntime.main\n\t/usr/local/go/src/runtime/proc.go:250"}
2022-06-07T07:25:45.031707615Z stderr F {"level":"warn","ts":1654586745.031626,"caller":"app/repeat.go:33","msg":"Pj bvhvOLbKJzF cqcnQF UuxYadzH EjltHAqcoBDPG RVfBMq IGoBxQbOVpcp PtvJXJgqnf qrCkritEtZre CZEeHeHdt UgigpCKEXzkY ZxcEsPXJP eSkRQnT EtgjUdPVogj"}
2022-06-07T07:25:45.03171473Z stderr F {"level":"info","ts":1654586745.031643,"caller":"app/repeat.go:35","msg":"ioLVykE uGmAJNd poAlnyPkKt AKlMjKpubHPtrT TkSnQ WpMZB xvirPYzk pimVJcgeKdsa"}
2022-06-07T07:25:45.031720955Z stderr F {"level":"info","ts":1654586745.0316596,"caller":"app/repeat.go:35","msg":"bIx KiGvm sZRZBMCT WzzLRys xBtNU WGegug HVvDayaqdzIQkm drwmTdk"}
2022-06-07T07:25:45.031837221Z stderr F {"level":"info","ts":1654586745.0316746,"caller":"app/repeat.go:35","msg":"mkDxFAF lCANJxVizV BzQPlVxbiMOZs QMWRUIJzzPuqxu KPDhPDpLGPgZPN iHybfdD vkQwCIX"}
2022-06-07T07:25:45.031847298Z stderr F {"level":"warn","ts":1654586745.0316863,"caller":"app/repeat.go:33","msg":"BrkvsC HFRWj AwkeJIZeabBH yFCeKCnFjBkRI"}
2022-06-07T07:25:45.031853305Z stderr F {"level":"info","ts":1654586745.0316985,"caller":"app/repeat.go:35","msg":"xaYE WHSzGlfiuiDj MEOzcagauB"}
2022-06-07T07:25:45.031859204Z stderr F {"level":"info","ts":1654586745.0317094,"caller":"app/repeat.go:35","msg":"srvZb MCmDIyFNCWSm yaghcqUDL Zrsym zgRaUzswjzFVmL BCFaRIWoRwakQq"}
2022-06-07T07:25:45.031865284Z stderr F {"level":"info","ts":1654586745.0317237,"caller":"app/repeat.go:35","msg":"iP cyXiNTuVQWDB ibLIcsgpTdS OCdCqiuJM ENcrOZCiwag TjLgctjEuQv ISDjWrnvibRHM OwXhWrxxoYPIth nTqKWNbqylFS"}
2022-06-07T07:25:45.031871879Z stderr F {"level":"info","ts":1654586745.031732,"caller":"app/repeat.go:35","msg":"SwmG UCAtWAQ"}
2022-06-07T07:25:45.031936137Z stderr F {"level":"error","ts":1654586745.0317402,"caller":"app/repeat.go:31","msg":"eqDBEzMix wOvSnVGx uyxGGoGwKQEgSa","stacktrace":"main.printLog\n\t/go/src/app/repeat.go:31\nmain.Repeat\n\t/go/src/app/repeat.go:55\nmain.main\n\t/go/src/app/repeat.go:74\nruntime.main\n\t/usr/local/go/src/runtime/proc.go:250"}
2022-06-07T07:25:45.031948363Z stderr F {"level":"error","ts":1654586745.031757,"caller":"app/repeat.go:31","msg":"fpBQtx syakflABUgBCT rOuznoFNitzB RMLvMyTuiw","stacktrace":"main.printLog\n\t/go/src/app/repeat.go:31\nmain.Repeat\n\t/go/src/app/repeat.go:55\nmain.main\n\t/go/src/app/repeat.go:74\nruntime.main\n\t/usr/local/go/src/runtime/proc.go:250"}
2022-06-07T07:25:45.031956364Z stderr F {"level":"warn","ts":1654586745.031809,"caller":"app/repeat.go:33","msg":"Es vjtHLdXzIpPA WElsTcMB eGwOZX Ipugr"}
2022-06-07T07:25:45.032015687Z stderr F {"level":"warn","ts":1654586745.0318239,"caller":"app/repeat.go:33","msg":"keLVzb XYuhkZuu tkIKeEuPESOued hXTedGlIz PRioJfZq xbSVEkKuhoNA bPnucTxzYvr suMRvibhmmw"}
2022-06-07T07:25:45.032023946Z stderr F {"level":"info","ts":1654586745.0318332,"caller":"app/repeat.go:35","msg":""}
2022-06-07T07:25:45.032029954Z stderr F {"level":"info","ts":1654586745.0318468,"caller":"app/repeat.go:35","msg":"IU DZxVjTVQ NBtDdan SmPrTlajPnsooV EgHYorU fdfJCyD KSKVTqXGmkW OtQWTqqO hvhWyjtciwfvc fwxMzOdhaw"}
2022-06-07T07:25:45.032035749Z stderr F {"level":"warn","ts":1654586745.0318587,"caller":"app/repeat.go:33","msg":"xeRJr anQsnYoIZmi eGgFVSWWNRwt IotpcCgwnYHJwx nyjBfoselwX"}
2022-06-07T07:25:45.032041411Z stderr F {"level":"warn","ts":1654586745.031879,"caller":"app/repeat.go:33","msg":"GACYhU BEzlzsk WuRhoRL BRxMrfeEHKzY jfszAedJosO lDFPZExWXS ZnpmZfZWo KAewtzIbNpeqZ RXPisf DYoMhgUCcycESc Bghhvrn QOWQufkUypnyv"}
2022-06-07T07:25:45.032087499Z stderr F {"level":"warn","ts":1654586745.0318904,"caller":"app/repeat.go:33","msg":"UgSt skmANIBLk bIrtul wNZhVz GPMCm EhioOTAa"}
2022-06-07T07:25:45.032095327Z stderr F {"level":"info","ts":1654586745.0319,"caller":"app/repeat.go:35","msg":"MFsBpi OpewPGoCtqzRZ MEqJIFjELSAH"}
2022-06-07T07:25:45.032100999Z stderr F {"level":"info","ts":1654586745.0319104,"caller":"app/repeat.go:35","msg":"mVpc dEitcPsF kJzcZPnZtO RnuCnXHJmTF"}
2022-06-07T07:25:45.032112907Z stderr F {"level":"info","ts":1654586745.031922,"caller":"app/repeat.go:35","msg":"ah bbyArInB tosfL vzDAg"}
2022-06-07T07:25:45.032125979Z stderr F {"level":"error","ts":1654586745.0319536,"caller":"app/repeat.go:31","msg":"fBmRqVtJO KRdBWODmqOwq BGGQeWKrsB pLiOoFW kmFmVyUs KauJKOQhFswN KxZcsUtrtMG MhnKZSYZEw fwBjFH","stacktrace":"main.printLog\n\t/go/src/app/repeat.go:31\nmain.Repeat\n\t/go/src/app/repeat.go:55\nmain.main\n\t/go/src/app/repeat.go:74\nruntime.main\n\t/usr/local/go/src/runtime/proc.go:250"}
2022-06-07T07:25:45.032173106Z stderr F {"level":"info","ts":1654586745.0319695,"caller":"app/repeat.go:35","msg":"lAHcTaL uBjoBvNz"}
2022-06-07T07:25:45.032180552Z stderr F {"level":"info","ts":1654586745.0319831,"caller":"app/repeat.go:35","msg":"mkAwPt jHWwlGgqBgRlqB kqqxkIK poMPqDTMOK xGRSQJCYFev yycOzRdUbtSDQ RgPPWjyfsADByy TfoVy JvEzJ"}
2022-06-07T07:25:45.03219274Z stderr F {"level":"info","ts":1654586745.0319998,"caller":"app/repeat.go:35","msg":"PnzJt LKsPRgpyreBZNm OJbBAc AdIoZXCfy"}
2022-06-07T07:25:45.032198769Z stderr F {"level":"info","ts":1654586745.032012,"caller":"app/repeat.go:35","msg":"VeB SYjoZQKDJH iMbeJEx xrZLbdTOnMK"}
2022-06-07T07:25:45.032204613Z stderr F {"level":"info","ts":1654586745.0320315,"caller":"app/repeat.go:35","msg":"vFQIh JKgQu QjbJBob howzaBUliMX danRUtJz xeoMwgOECkjd tFUYSV DSYTwWERUl KEDVxiZcym jxIlUKz lGKpowWDPMSY"}
2022-06-07T07:25:45.032210774Z stderr F {"level":"info","ts":1654586745.0320466,"caller":"app/repeat.go:35","msg":"clKBfBngX lidZxEJpMgItZy umZsxCDnnmuAV zhClCySW gLrMbyUAm MwEkXDHssV DjyqFEQhJ JJqRxcICBOrxU GqpvJK"}
2022-06-07T07:25:45.032254368Z stderr F {"level":"info","ts":1654586745.0320637,"caller":"app/repeat.go:35","msg":" JigkUdyEKJx blSNeyUDCy yyAZpDebmhiAGg aSWpvfKrXEN WLzsRgF cWuezmPJSq xWVusdgCLFxhaP awrtFXTcPd lAJSFNIcnYbdMy cnmGrnnAOiNZh InpfJ"}
2022-06-07T07:25:45.032262072Z stderr F {"level":"info","ts":1654586745.0320954,"caller":"app/repeat.go:35","msg":"FuKEE HijdRc zDyEPyQAimTOj xkLEqEvLmBMen xwtxolMFmcGyuG VsKsvZANtGkKCy rmwgEyMSzpUkm"}
2022-06-07T07:25:45.032267697Z stderr F {"level":"warn","ts":1654586745.0321093,"caller":"app/repeat.go:33","msg":"fpjG XclkcNHaARWHx RObPbtxzD"}
2022-06-07T07:25:45.032273635Z stderr F {"level":"info","ts":1654586745.0321229,"caller":"app/repeat.go:35","msg":"aXX ckKMUeivf teJtBKkAE SnqzhUoE VcBpPGyUXa zYTtUbGrVB KjtGiinXe gOmaL eYpFAcmKn"}
2022-06-07T07:25:45.032279286Z stderr F {"level":"info","ts":1654586745.0321343,"caller":"app/repeat.go:35","msg":"OltEZjvJ AyWErptITznlE qzKqT bAewkb CLXVPglULh wGRiIvXXboag"}
2022-06-07T07:25:45.032285221Z stderr F {"level":"error","ts":1654586745.0321448,"caller":"app/repeat.go:31","msg":"yT FUFgaIvsS kiBROKpxQySHQ qMCgcZp lqdaCUHRREyi","stacktrace":"main.printLog\n\t/go/src/app/repeat.go:31\nmain.Repeat\n\t/go/src/app/repeat.go:55\nmain.main\n\t/go/src/app/repeat.go:74\nruntime.main\n\t/usr/local/go/src/runtime/proc.go:250"}
2022-06-07T07:25:45.032297302Z stderr F {"level":"info","ts":1654586745.0321689,"caller":"app/repeat.go:35","msg":"i FkdgQT QygcjP zCfDKNgyJKpG qmjwDDlfLxFyZw HDojBQkE"}
2022-06-07T07:25:45.032348787Z stderr F {"level":"warn","ts":1654586745.0321817,"caller":"app/repeat.go:33","msg":"nevr srwGHHiRi BQgAnIOhy IEwJiMTLH akBaWSUa"}
2022-06-07T07:25:45.032355377Z stderr F {"level":"info","ts":1654586745.0321972,"caller":"app/repeat.go:35","msg":"oSToBQ kyJyVMGDDuYeoE UWmjpOfk FcgPrsQem DoMzmJalY hMuAsOJSoM miyrCHVsNbnQ WsZhh kKzcMrDkOrA yXCVZOFwlUPCNI"}
2022-06-07T07:25:45.032361062Z stderr F {"level":"warn","ts":1654586745.0322216,"caller":"app/repeat.go:33","msg":" spTQVLUElSdC EujTXe DOxlYUBYJsMp qXNmLoNAem MkWyApchGA SkPArTvdWTwT PbymiI AjTZyQIuFUGwjy hzoFhAXSGEZeJi bjXBRfRuU kUKMbHmLurwUI sEXKbZJtII IGUdejnJ"}
2022-06-07T07:25:45.032366949Z stderr F {"level":"info","ts":1654586745.032233,"caller":"app/repeat.go:35","msg":"bWK dwjODynp eWkSrfJdQDmBM vMtqtuD LdcqmLcKWId"}
2022-06-07T07:25:45.032378949Z stderr F {"level":"info","ts":1654586745.03225,"caller":"app/repeat.go:35","msg":"kGLdfeBr GMVLvGTCG ytssDvDbEzdO pexbMq pORUrIFmgAvAxl JDbFHwKDtYqkFV JHIwHcXgqaoS PfzkiIwkJ qfVpF PamVy AyykcwBdbWVmgn"}
2022-06-07T07:25:45.032430589Z stderr F {"level":"warn","ts":1654586745.032264,"caller":"app/repeat.go:33","msg":"jlohOA iNvoVP lxLrtRQGGIIHpJ OqFlzE RIFgCwCkupF ZTcrXDDCr"}
2022-06-07T07:25:45.032437839Z stderr F {"level":"warn","ts":1654586745.0322738,"caller":"app/repeat.go:33","msg":"kWiLPNY IfWhRkjOiZ UKupDH"}
2022-06-07T07:25:45.032443395Z stderr F {"level":"info","ts":1654586745.032283,"caller":"app/repeat.go:35","msg":" NjfUyKMLGMlxGy nKGdvlRYe fNtSnogrjD"}
2022-06-07T07:25:45.032449483Z stderr F {"level":"info","ts":1654586745.0322974,"caller":"app/repeat.go:35","msg":"sSediaJ NQaarQsUbo ztMGLtSgdSj MSJRItHZ YBLIDBThbk NNCmRogf"}
2022-06-07T07:25:45.032454807Z stderr F {"level":"info","ts":1654586745.0323126,"caller":"app/repeat.go:35","msg":"rrTyo uSdoCvWxExgW xrVFkBStsNVwp rPQkQ uGCxcamzN fOXovwyk"}
2022-06-07T07:25:45.032461433Z stderr F {"level":"info","ts":1654586745.0323226,"caller":"app/repeat.go:35","msg":"fWtRO qkZjfd ohOpO FekVSyEvVtfYiK uzKAQQh"}
2022-06-07T07:25:45.032499952Z stderr F {"level":"info","ts":1654586745.0323372,"caller":"app/repeat.go:35","msg":"dnFEhfg uWYNtZDThNtjU WRySoRyp osFAGZyXuBCY SbuqhwTlXzUl RcSAlq XsfFxD DlOZhlSNQV"}